<?xml version="1.0" standalone="no"?>
<!DOCTYPE svg PUBLIC "-//W3C//DTD SVG 1.1//EN" "http://www.w3.org/Graphics/SVG/1.1/DTD/svg11.dtd">
<svg width="322mm" height="322mm" viewBox="0 -322 322 322" xmlns="http://www.w3.org/2000/svg" version="1.1">
<title>OpenSCAD Model</title>
<path d="
M 155.314,-162.01 L 155.627,-162.039 L 155.937,-162.089 L 156.243,-162.157 L 156.545,-162.245 L 156.841,-162.351
 L 157.129,-162.476 L 157.409,-162.618 L 157.679,-162.778 L 157.939,-162.955 L 158.187,-163.147 L 158.423,-163.355
 L 158.645,-163.577 L 158.853,-163.813 L 159.045,-164.061 L 159.222,-164.321 L 159.382,-164.591 L 159.524,-164.871
 L 159.649,-165.159 L 159.755,-165.455 L 159.843,-165.757 L 159.911,-166.063 L 159.961,-166.373 L 159.99,-166.686
 L 160,-167 L 160,-317 L 159.99,-317.314 L 159.961,-317.627 L 159.911,-317.937 L 159.843,-318.243
 L 159.755,-318.545 L 159.649,-318.841 L 159.524,-319.129 L 159.382,-319.409 L 159.222,-319.679 L 159.045,-319.939
 L 158.853,-320.187 L 158.645,-320.423 L 158.423,-320.645 L 158.187,-320.853 L 157.939,-321.045 L 157.679,-321.222
 L 157.409,-321.382 L 157.129,-321.524 L 156.841,-321.649 L 156.545,-321.755 L 156.243,-321.843 L 155.937,-321.911
 L 155.627,-321.961 L 155.314,-321.99 L 155,-322 L 89.725,-322 L 84.725,-316.25 L 75.275,-316.25
 L 70.275,-322 L 5,-322 L 4.68605,-321.99 L 4.37334,-321.961 L 4.0631,-321.911 L 3.75656,-321.843
 L 3.45493,-321.755 L 3.15938,-321.649 L 2.87111,-321.524 L 2.59123,-321.382 L 2.32088,-321.222 L 2.06108,-321.045
 L 1.81288,-320.853 L 1.57727,-320.645 L 1.35516,-320.423 L 1.14745,-320.187 L 0.954926,-319.939 L 0.778366,-319.679
 L 0.618469,-319.409 L 0.475876,-319.129 L 0.35112,-318.841 L 0.24472,-318.545 L 0.157089,-318.243 L 0.0885773,-317.937
 L 0.0394287,-317.627 L 0.00987244,-317.314 L 0,-317 L 0,-167 L 0.00987244,-166.686 L 0.0394287,-166.373
 L 0.0885773,-166.063 L 0.157089,-165.757 L 0.24472,-165.455 L 0.35112,-165.159 L 0.475876,-164.871 L 0.618469,-164.591
 L 0.778366,-164.321 L 0.954926,-164.061 L 1.14745,-163.813 L 1.35516,-163.577 L 1.57727,-163.355 L 1.81288,-163.147
 L 2.06108,-162.955 L 2.32088,-162.778 L 2.59123,-162.618 L 2.87111,-162.476 L 3.15938,-162.351 L 3.45493,-162.245
 L 3.75656,-162.157 L 4.0631,-162.089 L 4.37334,-162.039 L 4.68605,-162.01 L 5,-162 L 155,-162
 z
M 4.89012,-315.253 L 4.78067,-315.264 L 4.67209,-315.281 L 4.5648,-315.305 L 4.45923,-315.336 L 4.35579,-315.373
 L 4.2549,-315.417 L 4.15694,-315.466 L 4.06232,-315.522 L 3.97139,-315.584 L 3.88452,-315.652 L 3.80205,-315.724
 L 3.72432,-315.802 L 3.65161,-315.885 L 3.58423,-315.971 L 3.52243,-316.062 L 3.46648,-316.157 L 3.41656,-316.255
 L 3.37289,-316.356 L 3.33566,-316.459 L 3.30499,-316.565 L 3.28101,-316.672 L 3.26381,-316.781 L 3.25346,-316.89
 L 3.25,-317 L 3.25346,-317.11 L 3.26381,-317.219 L 3.28101,-317.328 L 3.30499,-317.435 L 3.33566,-317.541
 L 3.37289,-317.644 L 3.41656,-317.745 L 3.46648,-317.843 L 3.52243,-317.938 L 3.58423,-318.029 L 3.65161,-318.115
 L 3.72432,-318.198 L 3.80205,-318.276 L 3.88452,-318.348 L 3.97139,-318.416 L 4.06232,-318.478 L 4.15694,-318.534
 L 4.2549,-318.583 L 4.35579,-318.627 L 4.45923,-318.664 L 4.5648,-318.695 L 4.67209,-318.719 L 4.78067,-318.736
 L 4.89012,-318.747 L 5,-318.75 L 5.10989,-318.747 L 5.21935,-318.736 L 5.32793,-318.719 L 5.43521,-318.695
 L 5.54079,-318.664 L 5.64423,-318.627 L 5.74512,-318.583 L 5.84308,-318.534 L 5.9377,-318.478 L 6.02863,-318.416
 L 6.11549,-318.348 L 6.19797,-318.276 L 6.2757,-318.198 L 6.3484,-318.115 L 6.41579,-318.029 L 6.47758,-317.938
 L 6.53354,-317.843 L 6.58345,-317.745 L 6.62712,-317.644 L 6.66435,-317.541 L 6.69502,-317.435 L 6.71901,-317.328
 L 6.73621,-317.219 L 6.74655,-317.11 L 6.75,-317 L 6.74655,-316.89 L 6.73621,-316.781 L 6.71901,-316.672
 L 6.69502,-316.565 L 6.66435,-316.459 L 6.62712,-316.356 L 6.58345,-316.255 L 6.53354,-316.157 L 6.47758,-316.062
 L 6.41579,-315.971 L 6.3484,-315.885 L 6.2757,-315.802 L 6.19797,-315.724 L 6.11549,-315.652 L 6.02863,-315.584
 L 5.9377,-315.522 L 5.84308,-315.466 L 5.74512,-315.417 L 5.64423,-315.373 L 5.54079,-315.336 L 5.43521,-315.305
 L 5.32793,-315.281 L 5.21935,-315.264 L 5.10989,-315.253 L 5,-315.25 z
M 154.89,-315.253 L 154.781,-315.264 L 154.672,-315.281 L 154.565,-315.305 L 154.459,-315.336 L 154.356,-315.373
 L 154.255,-315.417 L 154.157,-315.466 L 154.062,-315.522 L 153.971,-315.584 L 153.885,-315.652 L 153.802,-315.724
 L 153.724,-315.802 L 153.652,-315.885 L 153.584,-315.971 L 153.522,-316.062 L 153.466,-316.157 L 153.417,-316.255
 L 153.373,-316.356 L 153.336,-316.459 L 153.305,-316.565 L 153.281,-316.672 L 153.264,-316.781 L 153.253,-316.89
 L 153.25,-317 L 153.253,-317.11 L 153.264,-317.219 L 153.281,-317.328 L 153.305,-317.435 L 153.336,-317.541
 L 153.373,-317.644 L 153.417,-317.745 L 153.466,-317.843 L 153.522,-317.938 L 153.584,-318.029 L 153.652,-318.115
 L 153.724,-318.198 L 153.802,-318.276 L 153.885,-318.348 L 153.971,-318.416 L 154.062,-318.478 L 154.157,-318.534
 L 154.255,-318.583 L 154.356,-318.627 L 154.459,-318.664 L 154.565,-318.695 L 154.672,-318.719 L 154.781,-318.736
 L 154.89,-318.747 L 155,-318.75 L 155.11,-318.747 L 155.219,-318.736 L 155.328,-318.719 L 155.435,-318.695
 L 155.541,-318.664 L 155.644,-318.627 L 155.745,-318.583 L 155.843,-318.534 L 155.938,-318.478 L 156.029,-318.416
 L 156.115,-318.348 L 156.198,-318.276 L 156.276,-318.198 L 156.348,-318.115 L 156.416,-318.029 L 156.478,-317.938
 L 156.534,-317.843 L 156.583,-317.745 L 156.627,-317.644 L 156.664,-317.541 L 156.695,-317.435 L 156.719,-317.328
 L 156.736,-317.219 L 156.747,-317.11 L 156.75,-317 L 156.747,-316.89 L 156.736,-316.781 L 156.719,-316.672
 L 156.695,-316.565 L 156.664,-316.459 L 156.627,-316.356 L 156.583,-316.255 L 156.534,-316.157 L 156.478,-316.062
 L 156.416,-315.971 L 156.348,-315.885 L 156.276,-315.802 L 156.198,-315.724 L 156.115,-315.652 L 156.029,-315.584
 L 155.938,-315.522 L 155.843,-315.466 L 155.745,-315.417 L 155.644,-315.373 L 155.541,-315.336 L 155.435,-315.305
 L 155.328,-315.281 L 155.219,-315.264 L 155.11,-315.253 L 155,-315.25 z
M 136.642,-296.652 L 135.092,-297.778 L 134.5,-299.6 L 135.092,-301.422 L 136.642,-302.548 L 138.558,-302.548
 L 140.108,-301.422 L 140.7,-299.6 L 140.108,-297.778 L 138.558,-296.652 z
M 96.642,-296.652 L 95.092,-297.778 L 94.5,-299.6 L 95.092,-301.422 L 96.642,-302.548 L 98.5579,-302.548
 L 100.108,-301.422 L 100.7,-299.6 L 100.108,-297.778 L 98.5579,-296.652 z
M 56.6421,-296.652 L 55.0921,-297.778 L 54.5,-299.6 L 55.0921,-301.422 L 56.6421,-302.548 L 58.558,-302.548
 L 60.108,-301.422 L 60.7,-299.6 L 60.108,-297.778 L 58.558,-296.652 z
M 16.6421,-296.652 L 15.0921,-297.778 L 14.5,-299.6 L 15.0921,-301.422 L 16.6421,-302.548 L 18.558,-302.548
 L 20.108,-301.422 L 20.7,-299.6 L 20.108,-297.778 L 18.558,-296.652 z
M 56.6421,-256.652 L 55.0921,-257.778 L 54.5,-259.6 L 55.0921,-261.422 L 56.6421,-262.548 L 58.558,-262.548
 L 60.108,-261.422 L 60.7,-259.6 L 60.108,-257.778 L 58.558,-256.652 z
M 16.6421,-256.652 L 15.0921,-257.778 L 14.5,-259.6 L 15.0921,-261.422 L 16.6421,-262.548 L 18.558,-262.548
 L 20.108,-261.422 L 20.7,-259.6 L 20.108,-257.778 L 18.558,-256.652 z
M 96.642,-256.652 L 95.092,-257.778 L 94.5,-259.6 L 95.092,-261.422 L 96.642,-262.548 L 98.5579,-262.548
 L 100.108,-261.422 L 100.7,-259.6 L 100.108,-257.778 L 98.5579,-256.652 z
M 136.642,-256.652 L 135.092,-257.778 L 134.5,-259.6 L 135.092,-261.422 L 136.642,-262.548 L 138.558,-262.548
 L 140.108,-261.422 L 140.7,-259.6 L 140.108,-257.778 L 138.558,-256.652 z
M 16.6421,-216.652 L 15.0921,-217.778 L 14.5,-219.6 L 15.0921,-221.422 L 16.6421,-222.548 L 18.558,-222.548
 L 20.108,-221.422 L 20.7,-219.6 L 20.108,-217.778 L 18.558,-216.652 z
M 56.6421,-216.652 L 55.0921,-217.778 L 54.5,-219.6 L 55.0921,-221.422 L 56.6421,-222.548 L 58.558,-222.548
 L 60.108,-221.422 L 60.7,-219.6 L 60.108,-217.778 L 58.558,-216.652 z
M 96.642,-216.652 L 95.092,-217.778 L 94.5,-219.6 L 95.092,-221.422 L 96.642,-222.548 L 98.5579,-222.548
 L 100.108,-221.422 L 100.7,-219.6 L 100.108,-217.778 L 98.5579,-216.652 z
M 136.642,-216.652 L 135.092,-217.778 L 134.5,-219.6 L 135.092,-221.422 L 136.642,-222.548 L 138.558,-222.548
 L 140.108,-221.422 L 140.7,-219.6 L 140.108,-217.778 L 138.558,-216.652 z
M 16.6421,-176.652 L 15.0921,-177.778 L 14.5,-179.6 L 15.0921,-181.422 L 16.6421,-182.548 L 18.558,-182.548
 L 20.108,-181.422 L 20.7,-179.6 L 20.108,-177.778 L 18.558,-176.652 z
M 56.6421,-176.652 L 55.0921,-177.778 L 54.5,-179.6 L 55.0921,-181.422 L 56.6421,-182.548 L 58.558,-182.548
 L 60.108,-181.422 L 60.7,-179.6 L 60.108,-177.778 L 58.558,-176.652 z
M 96.642,-176.652 L 95.092,-177.778 L 94.5,-179.6 L 95.092,-181.422 L 96.642,-182.548 L 98.5579,-182.548
 L 100.108,-181.422 L 100.7,-179.6 L 100.108,-177.778 L 98.5579,-176.652 z
M 136.642,-176.652 L 135.092,-177.778 L 134.5,-179.6 L 135.092,-181.422 L 136.642,-182.548 L 138.558,-182.548
 L 140.108,-181.422 L 140.7,-179.6 L 140.108,-177.778 L 138.558,-176.652 z
M 154.89,-165.253 L 154.781,-165.264 L 154.672,-165.281 L 154.565,-165.305 L 154.459,-165.336 L 154.356,-165.373
 L 154.255,-165.417 L 154.157,-165.466 L 154.062,-165.522 L 153.971,-165.584 L 153.885,-165.652 L 153.802,-165.724
 L 153.724,-165.802 L 153.652,-165.885 L 153.584,-165.971 L 153.522,-166.062 L 153.466,-166.157 L 153.417,-166.255
 L 153.373,-166.356 L 153.336,-166.459 L 153.305,-166.565 L 153.281,-166.672 L 153.264,-166.781 L 153.253,-166.89
 L 153.25,-167 L 153.253,-167.11 L 153.264,-167.219 L 153.281,-167.328 L 153.305,-167.435 L 153.336,-167.541
 L 153.373,-167.644 L 153.417,-167.745 L 153.466,-167.843 L 153.522,-167.938 L 153.584,-168.029 L 153.652,-168.115
 L 153.724,-168.198 L 153.802,-168.276 L 153.885,-168.348 L 153.971,-168.416 L 154.062,-168.478 L 154.157,-168.534
 L 154.255,-168.583 L 154.356,-168.627 L 154.459,-168.664 L 154.565,-168.695 L 154.672,-168.719 L 154.781,-168.736
 L 154.89,-168.747 L 155,-168.75 L 155.11,-168.747 L 155.219,-168.736 L 155.328,-168.719 L 155.435,-168.695
 L 155.541,-168.664 L 155.644,-168.627 L 155.745,-168.583 L 155.843,-168.534 L 155.938,-168.478 L 156.029,-168.416
 L 156.115,-168.348 L 156.198,-168.276 L 156.276,-168.198 L 156.348,-168.115 L 156.416,-168.029 L 156.478,-167.938
 L 156.534,-167.843 L 156.583,-167.745 L 156.627,-167.644 L 156.664,-167.541 L 156.695,-167.435 L 156.719,-167.328
 L 156.736,-167.219 L 156.747,-167.11 L 156.75,-167 L 156.747,-166.89 L 156.736,-166.781 L 156.719,-166.672
 L 156.695,-166.565 L 156.664,-166.459 L 156.627,-166.356 L 156.583,-166.255 L 156.534,-166.157 L 156.478,-166.062
 L 156.416,-165.971 L 156.348,-165.885 L 156.276,-165.802 L 156.198,-165.724 L 156.115,-165.652 L 156.029,-165.584
 L 155.938,-165.522 L 155.843,-165.466 L 155.745,-165.417 L 155.644,-165.373 L 155.541,-165.336 L 155.435,-165.305
 L 155.328,-165.281 L 155.219,-165.264 L 155.11,-165.253 L 155,-165.25 z
M 4.89012,-165.253 L 4.78067,-165.264 L 4.67209,-165.281 L 4.5648,-165.305 L 4.45923,-165.336 L 4.35579,-165.373
 L 4.2549,-165.417 L 4.15694,-165.466 L 4.06232,-165.522 L 3.97139,-165.584 L 3.88452,-165.652 L 3.80205,-165.724
 L 3.72432,-165.802 L 3.65161,-165.885 L 3.58423,-165.971 L 3.52243,-166.062 L 3.46648,-166.157 L 3.41656,-166.255
 L 3.37289,-166.356 L 3.33566,-166.459 L 3.30499,-166.565 L 3.28101,-166.672 L 3.26381,-166.781 L 3.25346,-166.89
 L 3.25,-167 L 3.25346,-167.11 L 3.26381,-167.219 L 3.28101,-167.328 L 3.30499,-167.435 L 3.33566,-167.541
 L 3.37289,-167.644 L 3.41656,-167.745 L 3.46648,-167.843 L 3.52243,-167.938 L 3.58423,-168.029 L 3.65161,-168.115
 L 3.72432,-168.198 L 3.80205,-168.276 L 3.88452,-168.348 L 3.97139,-168.416 L 4.06232,-168.478 L 4.15694,-168.534
 L 4.2549,-168.583 L 4.35579,-168.627 L 4.45923,-168.664 L 4.5648,-168.695 L 4.67209,-168.719 L 4.78067,-168.736
 L 4.89012,-168.747 L 5,-168.75 L 5.10989,-168.747 L 5.21935,-168.736 L 5.32793,-168.719 L 5.43521,-168.695
 L 5.54079,-168.664 L 5.64423,-168.627 L 5.74512,-168.583 L 5.84308,-168.534 L 5.9377,-168.478 L 6.02863,-168.416
 L 6.11549,-168.348 L 6.19797,-168.276 L 6.2757,-168.198 L 6.3484,-168.115 L 6.41579,-168.029 L 6.47758,-167.938
 L 6.53354,-167.843 L 6.58345,-167.745 L 6.62712,-167.644 L 6.66435,-167.541 L 6.69502,-167.435 L 6.71901,-167.328
 L 6.73621,-167.219 L 6.74655,-167.11 L 6.75,-167 L 6.74655,-166.89 L 6.73621,-166.781 L 6.71901,-166.672
 L 6.69502,-166.565 L 6.66435,-166.459 L 6.62712,-166.356 L 6.58345,-166.255 L 6.53354,-166.157 L 6.47758,-166.062
 L 6.41579,-165.971 L 6.3484,-165.885 L 6.2757,-165.802 L 6.19797,-165.724 L 6.11549,-165.652 L 6.02863,-165.584
 L 5.9377,-165.522 L 5.84308,-165.466 L 5.74512,-165.417 L 5.64423,-165.373 L 5.54079,-165.336 L 5.43521,-165.305
 L 5.32793,-165.281 L 5.21935,-165.264 L 5.10989,-165.253 L 5,-165.25 z
M 317.314,-162.01 L 317.627,-162.039 L 317.937,-162.089 L 318.243,-162.157 L 318.545,-162.245 L 318.841,-162.351
 L 319.129,-162.476 L 319.409,-162.618 L 319.679,-162.778 L 319.939,-162.955 L 320.187,-163.147 L 320.423,-163.355
 L 320.645,-163.577 L 320.853,-163.813 L 321.045,-164.061 L 321.222,-164.321 L 321.382,-164.591 L 321.524,-164.871
 L 321.649,-165.159 L 321.755,-165.455 L 321.843,-165.757 L 321.911,-166.063 L 321.961,-166.373 L 321.99,-166.686
 L 322,-167 L 322,-317 L 321.99,-317.314 L 321.961,-317.627 L 321.911,-317.937 L 321.843,-318.243
 L 321.755,-318.545 L 321.649,-318.841 L 321.524,-319.129 L 321.382,-319.409 L 321.222,-319.679 L 321.045,-319.939
 L 320.853,-320.187 L 320.645,-320.423 L 320.423,-320.645 L 320.187,-320.853 L 319.939,-321.045 L 319.679,-321.222
 L 319.409,-321.382 L 319.129,-321.524 L 318.841,-321.649 L 318.545,-321.755 L 318.243,-321.843 L 317.937,-321.911
 L 317.627,-321.961 L 317.314,-321.99 L 317,-322 L 251.725,-322 L 246.725,-316.25 L 246.725,-314.4
 L 311,-314.4 L 311.213,-314.393 L 311.426,-314.373 L 311.637,-314.34 L 311.846,-314.293 L 312.051,-314.234
 L 312.252,-314.161 L 312.448,-314.076 L 312.638,-313.979 L 312.822,-313.871 L 312.998,-313.751 L 313.167,-313.62
 L 313.327,-313.478 L 313.478,-313.327 L 313.62,-313.167 L 313.751,-312.998 L 313.871,-312.822 L 313.979,-312.638
 L 314.076,-312.448 L 314.161,-312.252 L 314.234,-312.051 L 314.293,-311.846 L 314.34,-311.637 L 314.373,-311.426
 L 314.393,-311.213 L 314.4,-311 L 314.4,-173 L 314.393,-172.787 L 314.373,-172.574 L 314.34,-172.363
 L 314.293,-172.154 L 314.234,-171.949 L 314.161,-171.748 L 314.076,-171.552 L 313.979,-171.362 L 313.871,-171.178
 L 313.751,-171.002 L 313.62,-170.833 L 313.478,-170.673 L 313.327,-170.522 L 313.167,-170.38 L 312.998,-170.249
 L 312.822,-170.129 L 312.638,-170.021 L 312.448,-169.924 L 312.252,-169.839 L 312.051,-169.766 L 311.846,-169.707
 L 311.637,-169.66 L 311.426,-169.627 L 311.213,-169.607 L 311,-169.6 L 173,-169.6 L 172.787,-169.607
 L 172.574,-169.627 L 172.363,-169.66 L 172.154,-169.707 L 171.949,-169.766 L 171.748,-169.839 L 171.552,-169.924
 L 171.362,-170.021 L 171.178,-170.129 L 171.002,-170.249 L 170.833,-170.38 L 170.673,-170.522 L 170.522,-170.673
 L 170.38,-170.833 L 170.249,-171.002 L 170.129,-171.178 L 170.021,-171.362 L 169.924,-171.552 L 169.839,-171.748
 L 169.766,-171.949 L 169.707,-172.154 L 169.66,-172.363 L 169.627,-172.574 L 169.607,-172.787 L 169.6,-173
 L 169.6,-311 L 169.607,-311.213 L 169.627,-311.426 L 169.66,-311.637 L 169.707,-311.846 L 169.766,-312.051
 L 169.839,-312.252 L 169.924,-312.448 L 170.021,-312.638 L 170.129,-312.822 L 170.249,-312.998 L 170.38,-313.167
 L 170.522,-313.327 L 170.673,-313.478 L 170.833,-313.62 L 171.002,-313.751 L 171.178,-313.871 L 171.362,-313.979
 L 171.552,-314.076 L 171.748,-314.161 L 171.949,-314.234 L 172.154,-314.293 L 172.363,-314.34 L 172.574,-314.373
 L 172.787,-314.393 L 173,-314.4 L 237.275,-314.4 L 237.275,-316.25 L 232.275,-322 L 167,-322
 L 166.686,-321.99 L 166.373,-321.961 L 166.063,-321.911 L 165.757,-321.843 L 165.455,-321.755 L 165.159,-321.649
 L 164.871,-321.524 L 164.591,-321.382 L 164.321,-321.222 L 164.061,-321.045 L 163.813,-320.853 L 163.577,-320.645
 L 163.355,-320.423 L 163.147,-320.187 L 162.955,-319.939 L 162.778,-319.679 L 162.618,-319.409 L 162.476,-319.129
 L 162.351,-318.841 L 162.245,-318.545 L 162.157,-318.243 L 162.089,-317.937 L 162.039,-317.627 L 162.01,-317.314
 L 162,-317 L 162,-167 L 162.01,-166.686 L 162.039,-166.373 L 162.089,-166.063 L 162.157,-165.757
 L 162.245,-165.455 L 162.351,-165.159 L 162.476,-164.871 L 162.618,-164.591 L 162.778,-164.321 L 162.955,-164.061
 L 163.147,-163.813 L 163.355,-163.577 L 163.577,-163.355 L 163.813,-163.147 L 164.061,-162.955 L 164.321,-162.778
 L 164.591,-162.618 L 164.871,-162.476 L 165.159,-162.351 L 165.455,-162.245 L 165.757,-162.157 L 166.063,-162.089
 L 166.373,-162.039 L 166.686,-162.01 L 167,-162 L 317,-162 z
M 166.89,-315.253 L 166.781,-315.264 L 166.672,-315.281 L 166.565,-315.305 L 166.459,-315.336 L 166.356,-315.373
 L 166.255,-315.417 L 166.157,-315.466 L 166.062,-315.522 L 165.971,-315.584 L 165.885,-315.652 L 165.802,-315.724
 L 165.724,-315.802 L 165.652,-315.885 L 165.584,-315.971 L 165.522,-316.062 L 165.466,-316.157 L 165.417,-316.255
 L 165.373,-316.356 L 165.336,-316.459 L 165.305,-316.565 L 165.281,-316.672 L 165.264,-316.781 L 165.253,-316.89
 L 165.25,-317 L 165.253,-317.11 L 165.264,-317.219 L 165.281,-317.328 L 165.305,-317.435 L 165.336,-317.541
 L 165.373,-317.644 L 165.417,-317.745 L 165.466,-317.843 L 165.522,-317.938 L 165.584,-318.029 L 165.652,-318.115
 L 165.724,-318.198 L 165.802,-318.276 L 165.885,-318.348 L 165.971,-318.416 L 166.062,-318.478 L 166.157,-318.534
 L 166.255,-318.583 L 166.356,-318.627 L 166.459,-318.664 L 166.565,-318.695 L 166.672,-318.719 L 166.781,-318.736
 L 166.89,-318.747 L 167,-318.75 L 167.11,-318.747 L 167.219,-318.736 L 167.328,-318.719 L 167.435,-318.695
 L 167.541,-318.664 L 167.644,-318.627 L 167.745,-318.583 L 167.843,-318.534 L 167.938,-318.478 L 168.029,-318.416
 L 168.115,-318.348 L 168.198,-318.276 L 168.276,-318.198 L 168.348,-318.115 L 168.416,-318.029 L 168.478,-317.938
 L 168.534,-317.843 L 168.583,-317.745 L 168.627,-317.644 L 168.664,-317.541 L 168.695,-317.435 L 168.719,-317.328
 L 168.736,-317.219 L 168.747,-317.11 L 168.75,-317 L 168.747,-316.89 L 168.736,-316.781 L 168.719,-316.672
 L 168.695,-316.565 L 168.664,-316.459 L 168.627,-316.356 L 168.583,-316.255 L 168.534,-316.157 L 168.478,-316.062
 L 168.416,-315.971 L 168.348,-315.885 L 168.276,-315.802 L 168.198,-315.724 L 168.115,-315.652 L 168.029,-315.584
 L 167.938,-315.522 L 167.843,-315.466 L 167.745,-315.417 L 167.644,-315.373 L 167.541,-315.336 L 167.435,-315.305
 L 167.328,-315.281 L 167.219,-315.264 L 167.11,-315.253 L 167,-315.25 z
M 316.89,-315.253 L 316.781,-315.264 L 316.672,-315.281 L 316.565,-315.305 L 316.459,-315.336 L 316.356,-315.373
 L 316.255,-315.417 L 316.157,-315.466 L 316.062,-315.522 L 315.971,-315.584 L 315.885,-315.652 L 315.802,-315.724
 L 315.724,-315.802 L 315.652,-315.885 L 315.584,-315.971 L 315.522,-316.062 L 315.466,-316.157 L 315.417,-316.255
 L 315.373,-316.356 L 315.336,-316.459 L 315.305,-316.565 L 315.281,-316.672 L 315.264,-316.781 L 315.253,-316.89
 L 315.25,-317 L 315.253,-317.11 L 315.264,-317.219 L 315.281,-317.328 L 315.305,-317.435 L 315.336,-317.541
 L 315.373,-317.644 L 315.417,-317.745 L 315.466,-317.843 L 315.522,-317.938 L 315.584,-318.029 L 315.652,-318.115
 L 315.724,-318.198 L 315.802,-318.276 L 315.885,-318.348 L 315.971,-318.416 L 316.062,-318.478 L 316.157,-318.534
 L 316.255,-318.583 L 316.356,-318.627 L 316.459,-318.664 L 316.565,-318.695 L 316.672,-318.719 L 316.781,-318.736
 L 316.89,-318.747 L 317,-318.75 L 317.11,-318.747 L 317.219,-318.736 L 317.328,-318.719 L 317.435,-318.695
 L 317.541,-318.664 L 317.644,-318.627 L 317.745,-318.583 L 317.843,-318.534 L 317.938,-318.478 L 318.029,-318.416
 L 318.115,-318.348 L 318.198,-318.276 L 318.276,-318.198 L 318.348,-318.115 L 318.416,-318.029 L 318.478,-317.938
 L 318.534,-317.843 L 318.583,-317.745 L 318.627,-317.644 L 318.664,-317.541 L 318.695,-317.435 L 318.719,-317.328
 L 318.736,-317.219 L 318.747,-317.11 L 318.75,-317 L 318.747,-316.89 L 318.736,-316.781 L 318.719,-316.672
 L 318.695,-316.565 L 318.664,-316.459 L 318.627,-316.356 L 318.583,-316.255 L 318.534,-316.157 L 318.478,-316.062
 L 318.416,-315.971 L 318.348,-315.885 L 318.276,-315.802 L 318.198,-315.724 L 318.115,-315.652 L 318.029,-315.584
 L 317.938,-315.522 L 317.843,-315.466 L 317.745,-315.417 L 317.644,-315.373 L 317.541,-315.336 L 317.435,-315.305
 L 317.328,-315.281 L 317.219,-315.264 L 317.11,-315.253 L 317,-315.25 z
M 166.89,-165.253 L 166.781,-165.264 L 166.672,-165.281 L 166.565,-165.305 L 166.459,-165.336 L 166.356,-165.373
 L 166.255,-165.417 L 166.157,-165.466 L 166.062,-165.522 L 165.971,-165.584 L 165.885,-165.652 L 165.802,-165.724
 L 165.724,-165.802 L 165.652,-165.885 L 165.584,-165.971 L 165.522,-166.062 L 165.466,-166.157 L 165.417,-166.255
 L 165.373,-166.356 L 165.336,-166.459 L 165.305,-166.565 L 165.281,-166.672 L 165.264,-166.781 L 165.253,-166.89
 L 165.25,-167 L 165.253,-167.11 L 165.264,-167.219 L 165.281,-167.328 L 165.305,-167.435 L 165.336,-167.541
 L 165.373,-167.644 L 165.417,-167.745 L 165.466,-167.843 L 165.522,-167.938 L 165.584,-168.029 L 165.652,-168.115
 L 165.724,-168.198 L 165.802,-168.276 L 165.885,-168.348 L 165.971,-168.416 L 166.062,-168.478 L 166.157,-168.534
 L 166.255,-168.583 L 166.356,-168.627 L 166.459,-168.664 L 166.565,-168.695 L 166.672,-168.719 L 166.781,-168.736
 L 166.89,-168.747 L 167,-168.75 L 167.11,-168.747 L 167.219,-168.736 L 167.328,-168.719 L 167.435,-168.695
 L 167.541,-168.664 L 167.644,-168.627 L 167.745,-168.583 L 167.843,-168.534 L 167.938,-168.478 L 168.029,-168.416
 L 168.115,-168.348 L 168.198,-168.276 L 168.276,-168.198 L 168.348,-168.115 L 168.416,-168.029 L 168.478,-167.938
 L 168.534,-167.843 L 168.583,-167.745 L 168.627,-167.644 L 168.664,-167.541 L 168.695,-167.435 L 168.719,-167.328
 L 168.736,-167.219 L 168.747,-167.11 L 168.75,-167 L 168.747,-166.89 L 168.736,-166.781 L 168.719,-166.672
 L 168.695,-166.565 L 168.664,-166.459 L 168.627,-166.356 L 168.583,-166.255 L 168.534,-166.157 L 168.478,-166.062
 L 168.416,-165.971 L 168.348,-165.885 L 168.276,-165.802 L 168.198,-165.724 L 168.115,-165.652 L 168.029,-165.584
 L 167.938,-165.522 L 167.843,-165.466 L 167.745,-165.417 L 167.644,-165.373 L 167.541,-165.336 L 167.435,-165.305
 L 167.328,-165.281 L 167.219,-165.264 L 167.11,-165.253 L 167,-165.25 z
M 316.89,-165.253 L 316.781,-165.264 L 316.672,-165.281 L 316.565,-165.305 L 316.459,-165.336 L 316.356,-165.373
 L 316.255,-165.417 L 316.157,-165.466 L 316.062,-165.522 L 315.971,-165.584 L 315.885,-165.652 L 315.802,-165.724
 L 315.724,-165.802 L 315.652,-165.885 L 315.584,-165.971 L 315.522,-166.062 L 315.466,-166.157 L 315.417,-166.255
 L 315.373,-166.356 L 315.336,-166.459 L 315.305,-166.565 L 315.281,-166.672 L 315.264,-166.781 L 315.253,-166.89
 L 315.25,-167 L 315.253,-167.11 L 315.264,-167.219 L 315.281,-167.328 L 315.305,-167.435 L 315.336,-167.541
 L 315.373,-167.644 L 315.417,-167.745 L 315.466,-167.843 L 315.522,-167.938 L 315.584,-168.029 L 315.652,-168.115
 L 315.724,-168.198 L 315.802,-168.276 L 315.885,-168.348 L 315.971,-168.416 L 316.062,-168.478 L 316.157,-168.534
 L 316.255,-168.583 L 316.356,-168.627 L 316.459,-168.664 L 316.565,-168.695 L 316.672,-168.719 L 316.781,-168.736
 L 316.89,-168.747 L 317,-168.75 L 317.11,-168.747 L 317.219,-168.736 L 317.328,-168.719 L 317.435,-168.695
 L 317.541,-168.664 L 317.644,-168.627 L 317.745,-168.583 L 317.843,-168.534 L 317.938,-168.478 L 318.029,-168.416
 L 318.115,-168.348 L 318.198,-168.276 L 318.276,-168.198 L 318.348,-168.115 L 318.416,-168.029 L 318.478,-167.938
 L 318.534,-167.843 L 318.583,-167.745 L 318.627,-167.644 L 318.664,-167.541 L 318.695,-167.435 L 318.719,-167.328
 L 318.736,-167.219 L 318.747,-167.11 L 318.75,-167 L 318.747,-166.89 L 318.736,-166.781 L 318.719,-166.672
 L 318.695,-166.565 L 318.664,-166.459 L 318.627,-166.356 L 318.583,-166.255 L 318.534,-166.157 L 318.478,-166.062
 L 318.416,-165.971 L 318.348,-165.885 L 318.276,-165.802 L 318.198,-165.724 L 318.115,-165.652 L 318.029,-165.584
 L 317.938,-165.522 L 317.843,-165.466 L 317.745,-165.417 L 317.644,-165.373 L 317.541,-165.336 L 317.435,-165.305
 L 317.328,-165.281 L 317.219,-165.264 L 317.11,-165.253 L 317,-165.25 z
M 317.314,-0.00987244 L 317.627,-0.0394287 L 317.937,-0.0885773 L 318.243,-0.157089 L 318.545,-0.24472 L 318.841,-0.35112
 L 319.129,-0.475876 L 319.409,-0.618469 L 319.679,-0.778366 L 319.939,-0.954926 L 320.187,-1.14745 L 320.423,-1.35516
 L 320.645,-1.57727 L 320.853,-1.81288 L 321.045,-2.06108 L 321.222,-2.32088 L 321.382,-2.59123 L 321.524,-2.87111
 L 321.649,-3.15938 L 321.755,-3.45493 L 321.843,-3.75656 L 321.911,-4.0631 L 321.961,-4.37334 L 321.99,-4.68605
 L 322,-5 L 322,-155 L 321.99,-155.314 L 321.961,-155.627 L 321.911,-155.937 L 321.843,-156.243
 L 321.755,-156.545 L 321.649,-156.841 L 321.524,-157.129 L 321.382,-157.409 L 321.222,-157.679 L 321.045,-157.939
 L 320.853,-158.187 L 320.645,-158.423 L 320.423,-158.645 L 320.187,-158.853 L 319.939,-159.045 L 319.679,-159.222
 L 319.409,-159.382 L 319.129,-159.524 L 318.841,-159.649 L 318.545,-159.755 L 318.243,-159.843 L 317.937,-159.911
 L 317.627,-159.961 L 317.314,-159.99 L 317,-160 L 251.725,-160 L 246.725,-154.25 L 237.275,-154.25
 L 232.275,-160 L 167,-160 L 166.686,-159.99 L 166.373,-159.961 L 166.063,-159.911 L 165.757,-159.843
 L 165.455,-159.755 L 165.159,-159.649 L 164.871,-159.524 L 164.591,-159.382 L 164.321,-159.222 L 164.061,-159.045
 L 163.813,-158.853 L 163.577,-158.645 L 163.355,-158.423 L 163.147,-158.187 L 162.955,-157.939 L 162.778,-157.679
 L 162.618,-157.409 L 162.476,-157.129 L 162.351,-156.841 L 162.245,-156.545 L 162.157,-156.243 L 162.089,-155.937
 L 162.039,-155.627 L 162.01,-155.314 L 162,-155 L 162,-5 L 162.01,-4.68605 L 162.039,-4.37334
 L 162.089,-4.0631 L 162.157,-3.75656 L 162.245,-3.45493 L 162.351,-3.15938 L 162.476,-2.87111 L 162.618,-2.59123
 L 162.778,-2.32088 L 162.955,-2.06108 L 163.147,-1.81288 L 163.355,-1.57727 L 163.577,-1.35516 L 163.813,-1.14745
 L 164.061,-0.954926 L 164.321,-0.778366 L 164.591,-0.618469 L 164.871,-0.475876 L 165.159,-0.35112 L 165.455,-0.24472
 L 165.757,-0.157089 L 166.063,-0.0885773 L 166.373,-0.0394287 L 166.686,-0.00987244 L 167,-0 L 317,-0
 z
M 166.89,-153.253 L 166.781,-153.264 L 166.672,-153.281 L 166.565,-153.305 L 166.459,-153.336 L 166.356,-153.373
 L 166.255,-153.417 L 166.157,-153.466 L 166.062,-153.522 L 165.971,-153.584 L 165.885,-153.652 L 165.802,-153.724
 L 165.724,-153.802 L 165.652,-153.885 L 165.584,-153.971 L 165.522,-154.062 L 165.466,-154.157 L 165.417,-154.255
 L 165.373,-154.356 L 165.336,-154.459 L 165.305,-154.565 L 165.281,-154.672 L 165.264,-154.781 L 165.253,-154.89
 L 165.25,-155 L 165.253,-155.11 L 165.264,-155.219 L 165.281,-155.328 L 165.305,-155.435 L 165.336,-155.541
 L 165.373,-155.644 L 165.417,-155.745 L 165.466,-155.843 L 165.522,-155.938 L 165.584,-156.029 L 165.652,-156.115
 L 165.724,-156.198 L 165.802,-156.276 L 165.885,-156.348 L 165.971,-156.416 L 166.062,-156.478 L 166.157,-156.534
 L 166.255,-156.583 L 166.356,-156.627 L 166.459,-156.664 L 166.565,-156.695 L 166.672,-156.719 L 166.781,-156.736
 L 166.89,-156.747 L 167,-156.75 L 167.11,-156.747 L 167.219,-156.736 L 167.328,-156.719 L 167.435,-156.695
 L 167.541,-156.664 L 167.644,-156.627 L 167.745,-156.583 L 167.843,-156.534 L 167.938,-156.478 L 168.029,-156.416
 L 168.115,-156.348 L 168.198,-156.276 L 168.276,-156.198 L 168.348,-156.115 L 168.416,-156.029 L 168.478,-155.938
 L 168.534,-155.843 L 168.583,-155.745 L 168.627,-155.644 L 168.664,-155.541 L 168.695,-155.435 L 168.719,-155.328
 L 168.736,-155.219 L 168.747,-155.11 L 168.75,-155 L 168.747,-154.89 L 168.736,-154.781 L 168.719,-154.672
 L 168.695,-154.565 L 168.664,-154.459 L 168.627,-154.356 L 168.583,-154.255 L 168.534,-154.157 L 168.478,-154.062
 L 168.416,-153.971 L 168.348,-153.885 L 168.276,-153.802 L 168.198,-153.724 L 168.115,-153.652 L 168.029,-153.584
 L 167.938,-153.522 L 167.843,-153.466 L 167.745,-153.417 L 167.644,-153.373 L 167.541,-153.336 L 167.435,-153.305
 L 167.328,-153.281 L 167.219,-153.264 L 167.11,-153.253 L 167,-153.25 z
M 316.89,-153.253 L 316.781,-153.264 L 316.672,-153.281 L 316.565,-153.305 L 316.459,-153.336 L 316.356,-153.373
 L 316.255,-153.417 L 316.157,-153.466 L 316.062,-153.522 L 315.971,-153.584 L 315.885,-153.652 L 315.802,-153.724
 L 315.724,-153.802 L 315.652,-153.885 L 315.584,-153.971 L 315.522,-154.062 L 315.466,-154.157 L 315.417,-154.255
 L 315.373,-154.356 L 315.336,-154.459 L 315.305,-154.565 L 315.281,-154.672 L 315.264,-154.781 L 315.253,-154.89
 L 315.25,-155 L 315.253,-155.11 L 315.264,-155.219 L 315.281,-155.328 L 315.305,-155.435 L 315.336,-155.541
 L 315.373,-155.644 L 315.417,-155.745 L 315.466,-155.843 L 315.522,-155.938 L 315.584,-156.029 L 315.652,-156.115
 L 315.724,-156.198 L 315.802,-156.276 L 315.885,-156.348 L 315.971,-156.416 L 316.062,-156.478 L 316.157,-156.534
 L 316.255,-156.583 L 316.356,-156.627 L 316.459,-156.664 L 316.565,-156.695 L 316.672,-156.719 L 316.781,-156.736
 L 316.89,-156.747 L 317,-156.75 L 317.11,-156.747 L 317.219,-156.736 L 317.328,-156.719 L 317.435,-156.695
 L 317.541,-156.664 L 317.644,-156.627 L 317.745,-156.583 L 317.843,-156.534 L 317.938,-156.478 L 318.029,-156.416
 L 318.115,-156.348 L 318.198,-156.276 L 318.276,-156.198 L 318.348,-156.115 L 318.416,-156.029 L 318.478,-155.938
 L 318.534,-155.843 L 318.583,-155.745 L 318.627,-155.644 L 318.664,-155.541 L 318.695,-155.435 L 318.719,-155.328
 L 318.736,-155.219 L 318.747,-155.11 L 318.75,-155 L 318.747,-154.89 L 318.736,-154.781 L 318.719,-154.672
 L 318.695,-154.565 L 318.664,-154.459 L 318.627,-154.356 L 318.583,-154.255 L 318.534,-154.157 L 318.478,-154.062
 L 318.416,-153.971 L 318.348,-153.885 L 318.276,-153.802 L 318.198,-153.724 L 318.115,-153.652 L 318.029,-153.584
 L 317.938,-153.522 L 317.843,-153.466 L 317.745,-153.417 L 317.644,-153.373 L 317.541,-153.336 L 317.435,-153.305
 L 317.328,-153.281 L 317.219,-153.264 L 317.11,-153.253 L 317,-153.25 z
M 173,-7.60001 L 172.787,-7.60672 L 172.574,-7.62682 L 172.363,-7.66023 L 172.154,-7.70682 L 171.949,-7.76642
 L 171.748,-7.83876 L 171.552,-7.9236 L 171.362,-8.02057 L 171.178,-8.12929 L 171.002,-8.24934 L 170.833,-8.38026
 L 170.673,-8.52151 L 170.522,-8.67255 L 170.38,-8.83276 L 170.249,-9.00154 L 170.129,-9.17819 L 170.021,-9.36205
 L 169.924,-9.55235 L 169.839,-9.74838 L 169.766,-9.94936 L 169.707,-10.1545 L 169.66,-10.3629 L 169.627,-10.5739
 L 169.607,-10.7865 L 169.6,-11 L 169.6,-149 L 169.607,-149.213 L 169.627,-149.426 L 169.66,-149.637
 L 169.707,-149.846 L 169.766,-150.051 L 169.839,-150.252 L 169.924,-150.448 L 170.021,-150.638 L 170.129,-150.822
 L 170.249,-150.998 L 170.38,-151.167 L 170.522,-151.327 L 170.673,-151.478 L 170.833,-151.62 L 171.002,-151.751
 L 171.178,-151.871 L 171.362,-151.979 L 171.552,-152.076 L 171.748,-152.161 L 171.949,-152.234 L 172.154,-152.293
 L 172.363,-152.34 L 172.574,-152.373 L 172.787,-152.393 L 173,-152.4 L 311,-152.4 L 311.213,-152.393
 L 311.426,-152.373 L 311.637,-152.34 L 311.846,-152.293 L 312.051,-152.234 L 312.252,-152.161 L 312.448,-152.076
 L 312.638,-151.979 L 312.822,-151.871 L 312.998,-151.751 L 313.167,-151.62 L 313.327,-151.478 L 313.478,-151.327
 L 313.62,-151.167 L 313.751,-150.998 L 313.871,-150.822 L 313.979,-150.638 L 314.076,-150.448 L 314.161,-150.252
 L 314.234,-150.051 L 314.293,-149.846 L 314.34,-149.637 L 314.373,-149.426 L 314.393,-149.213 L 314.4,-149
 L 314.4,-11 L 314.393,-10.7865 L 314.373,-10.5739 L 314.34,-10.3629 L 314.293,-10.1545 L 314.234,-9.94936
 L 314.161,-9.74838 L 314.076,-9.55235 L 313.979,-9.36205 L 313.871,-9.17819 L 313.751,-9.00154 L 313.62,-8.83276
 L 313.478,-8.67255 L 313.327,-8.52151 L 313.167,-8.38026 L 312.998,-8.24934 L 312.822,-8.12929 L 312.638,-8.02057
 L 312.448,-7.9236 L 312.252,-7.83876 L 312.051,-7.76642 L 311.846,-7.70682 L 311.637,-7.66023 L 311.426,-7.62682
 L 311.213,-7.60672 L 311,-7.60001 z
M 166.89,-3.25346 L 166.781,-3.26381 L 166.672,-3.28101 L 166.565,-3.30499 L 166.459,-3.33566 L 166.356,-3.37289
 L 166.255,-3.41656 L 166.157,-3.46648 L 166.062,-3.52243 L 165.971,-3.58423 L 165.885,-3.65161 L 165.802,-3.72432
 L 165.724,-3.80205 L 165.652,-3.88452 L 165.584,-3.97139 L 165.522,-4.06232 L 165.466,-4.15694 L 165.417,-4.2549
 L 165.373,-4.35579 L 165.336,-4.45923 L 165.305,-4.5648 L 165.281,-4.67209 L 165.264,-4.78067 L 165.253,-4.89012
 L 165.25,-5 L 165.253,-5.10989 L 165.264,-5.21935 L 165.281,-5.32793 L 165.305,-5.43521 L 165.336,-5.54079
 L 165.373,-5.64423 L 165.417,-5.74512 L 165.466,-5.84308 L 165.522,-5.9377 L 165.584,-6.02863 L 165.652,-6.11549
 L 165.724,-6.19797 L 165.802,-6.2757 L 165.885,-6.3484 L 165.971,-6.41579 L 166.062,-6.47758 L 166.157,-6.53354
 L 166.255,-6.58345 L 166.356,-6.62712 L 166.459,-6.66435 L 166.565,-6.69502 L 166.672,-6.71901 L 166.781,-6.73621
 L 166.89,-6.74655 L 167,-6.75 L 167.11,-6.74655 L 167.219,-6.73621 L 167.328,-6.71901 L 167.435,-6.69502
 L 167.541,-6.66435 L 167.644,-6.62712 L 167.745,-6.58345 L 167.843,-6.53354 L 167.938,-6.47758 L 168.029,-6.41579
 L 168.115,-6.3484 L 168.198,-6.2757 L 168.276,-6.19797 L 168.348,-6.11549 L 168.416,-6.02863 L 168.478,-5.9377
 L 168.534,-5.84308 L 168.583,-5.74512 L 168.627,-5.64423 L 168.664,-5.54079 L 168.695,-5.43521 L 168.719,-5.32793
 L 168.736,-5.21935 L 168.747,-5.10989 L 168.75,-5 L 168.747,-4.89012 L 168.736,-4.78067 L 168.719,-4.67209
 L 168.695,-4.5648 L 168.664,-4.45923 L 168.627,-4.35579 L 168.583,-4.2549 L 168.534,-4.15694 L 168.478,-4.06232
 L 168.416,-3.97139 L 168.348,-3.88452 L 168.276,-3.80205 L 168.198,-3.72432 L 168.115,-3.65161 L 168.029,-3.58423
 L 167.938,-3.52243 L 167.843,-3.46648 L 167.745,-3.41656 L 167.644,-3.37289 L 167.541,-3.33566 L 167.435,-3.30499
 L 167.328,-3.28101 L 167.219,-3.26381 L 167.11,-3.25346 L 167,-3.25 z
M 316.89,-3.25346 L 316.781,-3.26381 L 316.672,-3.28101 L 316.565,-3.30499 L 316.459,-3.33566 L 316.356,-3.37289
 L 316.255,-3.41656 L 316.157,-3.46648 L 316.062,-3.52243 L 315.971,-3.58423 L 315.885,-3.65161 L 315.802,-3.72432
 L 315.724,-3.80205 L 315.652,-3.88452 L 315.584,-3.97139 L 315.522,-4.06232 L 315.466,-4.15694 L 315.417,-4.2549
 L 315.373,-4.35579 L 315.336,-4.45923 L 315.305,-4.5648 L 315.281,-4.67209 L 315.264,-4.78067 L 315.253,-4.89012
 L 315.25,-5 L 315.253,-5.10989 L 315.264,-5.21935 L 315.281,-5.32793 L 315.305,-5.43521 L 315.336,-5.54079
 L 315.373,-5.64423 L 315.417,-5.74512 L 315.466,-5.84308 L 315.522,-5.9377 L 315.584,-6.02863 L 315.652,-6.11549
 L 315.724,-6.19797 L 315.802,-6.2757 L 315.885,-6.3484 L 315.971,-6.41579 L 316.062,-6.47758 L 316.157,-6.53354
 L 316.255,-6.58345 L 316.356,-6.62712 L 316.459,-6.66435 L 316.565,-6.69502 L 316.672,-6.71901 L 316.781,-6.73621
 L 316.89,-6.74655 L 317,-6.75 L 317.11,-6.74655 L 317.219,-6.73621 L 317.328,-6.71901 L 317.435,-6.69502
 L 317.541,-6.66435 L 317.644,-6.62712 L 317.745,-6.58345 L 317.843,-6.53354 L 317.938,-6.47758 L 318.029,-6.41579
 L 318.115,-6.3484 L 318.198,-6.2757 L 318.276,-6.19797 L 318.348,-6.11549 L 318.416,-6.02863 L 318.478,-5.9377
 L 318.534,-5.84308 L 318.583,-5.74512 L 318.627,-5.64423 L 318.664,-5.54079 L 318.695,-5.43521 L 318.719,-5.32793
 L 318.736,-5.21935 L 318.747,-5.10989 L 318.75,-5 L 318.747,-4.89012 L 318.736,-4.78067 L 318.719,-4.67209
 L 318.695,-4.5648 L 318.664,-4.45923 L 318.627,-4.35579 L 318.583,-4.2549 L 318.534,-4.15694 L 318.478,-4.06232
 L 318.416,-3.97139 L 318.348,-3.88452 L 318.276,-3.80205 L 318.198,-3.72432 L 318.115,-3.65161 L 318.029,-3.58423
 L 317.938,-3.52243 L 317.843,-3.46648 L 317.745,-3.41656 L 317.644,-3.37289 L 317.541,-3.33566 L 317.435,-3.30499
 L 317.328,-3.28101 L 317.219,-3.26381 L 317.11,-3.25346 L 317,-3.25 z
M 155.314,-0.00987244 L 155.627,-0.0394287 L 155.937,-0.0885773 L 156.243,-0.157089 L 156.545,-0.24472 L 156.841,-0.35112
 L 157.129,-0.475876 L 157.409,-0.618469 L 157.679,-0.778366 L 157.939,-0.954926 L 158.187,-1.14745 L 158.423,-1.35516
 L 158.645,-1.57727 L 158.853,-1.81288 L 159.045,-2.06108 L 159.222,-2.32088 L 159.382,-2.59123 L 159.524,-2.87111
 L 159.649,-3.15938 L 159.755,-3.45493 L 159.843,-3.75656 L 159.911,-4.0631 L 159.961,-4.37334 L 159.99,-4.68605
 L 160,-5 L 160,-155 L 159.99,-155.314 L 159.961,-155.627 L 159.911,-155.937 L 159.843,-156.243
 L 159.755,-156.545 L 159.649,-156.841 L 159.524,-157.129 L 159.382,-157.409 L 159.222,-157.679 L 159.045,-157.939
 L 158.853,-158.187 L 158.645,-158.423 L 158.423,-158.645 L 158.187,-158.853 L 157.939,-159.045 L 157.679,-159.222
 L 157.409,-159.382 L 157.129,-159.524 L 156.841,-159.649 L 156.545,-159.755 L 156.243,-159.843 L 155.937,-159.911
 L 155.627,-159.961 L 155.314,-159.99 L 155,-160 L 5,-160 L 4.68605,-159.99 L 4.37334,-159.961
 L 4.0631,-159.911 L 3.75656,-159.843 L 3.45493,-159.755 L 3.15938,-159.649 L 2.87111,-159.524 L 2.59123,-159.382
 L 2.32088,-159.222 L 2.06108,-159.045 L 1.81288,-158.853 L 1.57727,-158.645 L 1.35516,-158.423 L 1.14745,-158.187
 L 0.954926,-157.939 L 0.778366,-157.679 L 0.618469,-157.409 L 0.475876,-157.129 L 0.35112,-156.841 L 0.24472,-156.545
 L 0.157089,-156.243 L 0.0885773,-155.937 L 0.0394287,-155.627 L 0.00987244,-155.314 L 0,-155 L 0,-5
 L 0.00987244,-4.68605 L 0.0394287,-4.37334 L 0.0885773,-4.0631 L 0.157089,-3.75656 L 0.24472,-3.45493 L 0.35112,-3.15938
 L 0.475876,-2.87111 L 0.618469,-2.59123 L 0.778366,-2.32088 L 0.954926,-2.06108 L 1.14745,-1.81288 L 1.35516,-1.57727
 L 1.57727,-1.35516 L 1.81288,-1.14745 L 2.06108,-0.954926 L 2.32088,-0.778366 L 2.59123,-0.618469 L 2.87111,-0.475876
 L 3.15938,-0.35112 L 3.45493,-0.24472 L 3.75656,-0.157089 L 4.0631,-0.0885773 L 4.37334,-0.0394287 L 4.68605,-0.00987244
 L 5,-0 L 155,-0 z
M 4.89012,-153.253 L 4.78067,-153.264 L 4.67209,-153.281 L 4.5648,-153.305 L 4.45923,-153.336 L 4.35579,-153.373
 L 4.2549,-153.417 L 4.15694,-153.466 L 4.06232,-153.522 L 3.97139,-153.584 L 3.88452,-153.652 L 3.80205,-153.724
 L 3.72432,-153.802 L 3.65161,-153.885 L 3.58423,-153.971 L 3.52243,-154.062 L 3.46648,-154.157 L 3.41656,-154.255
 L 3.37289,-154.356 L 3.33566,-154.459 L 3.30499,-154.565 L 3.28101,-154.672 L 3.26381,-154.781 L 3.25346,-154.89
 L 3.25,-155 L 3.25346,-155.11 L 3.26381,-155.219 L 3.28101,-155.328 L 3.30499,-155.435 L 3.33566,-155.541
 L 3.37289,-155.644 L 3.41656,-155.745 L 3.46648,-155.843 L 3.52243,-155.938 L 3.58423,-156.029 L 3.65161,-156.115
 L 3.72432,-156.198 L 3.80205,-156.276 L 3.88452,-156.348 L 3.97139,-156.416 L 4.06232,-156.478 L 4.15694,-156.534
 L 4.2549,-156.583 L 4.35579,-156.627 L 4.45923,-156.664 L 4.5648,-156.695 L 4.67209,-156.719 L 4.78067,-156.736
 L 4.89012,-156.747 L 5,-156.75 L 5.10989,-156.747 L 5.21935,-156.736 L 5.32793,-156.719 L 5.43521,-156.695
 L 5.54079,-156.664 L 5.64423,-156.627 L 5.74512,-156.583 L 5.84308,-156.534 L 5.9377,-156.478 L 6.02863,-156.416
 L 6.11549,-156.348 L 6.19797,-156.276 L 6.2757,-156.198 L 6.3484,-156.115 L 6.41579,-156.029 L 6.47758,-155.938
 L 6.53354,-155.843 L 6.58345,-155.745 L 6.62712,-155.644 L 6.66435,-155.541 L 6.69502,-155.435 L 6.71901,-155.328
 L 6.73621,-155.219 L 6.74655,-155.11 L 6.75,-155 L 6.74655,-154.89 L 6.73621,-154.781 L 6.71901,-154.672
 L 6.69502,-154.565 L 6.66435,-154.459 L 6.62712,-154.356 L 6.58345,-154.255 L 6.53354,-154.157 L 6.47758,-154.062
 L 6.41579,-153.971 L 6.3484,-153.885 L 6.2757,-153.802 L 6.19797,-153.724 L 6.11549,-153.652 L 6.02863,-153.584
 L 5.9377,-153.522 L 5.84308,-153.466 L 5.74512,-153.417 L 5.64423,-153.373 L 5.54079,-153.336 L 5.43521,-153.305
 L 5.32793,-153.281 L 5.21935,-153.264 L 5.10989,-153.253 L 5,-153.25 z
M 154.89,-153.253 L 154.781,-153.264 L 154.672,-153.281 L 154.565,-153.305 L 154.459,-153.336 L 154.356,-153.373
 L 154.255,-153.417 L 154.157,-153.466 L 154.062,-153.522 L 153.971,-153.584 L 153.885,-153.652 L 153.802,-153.724
 L 153.724,-153.802 L 153.652,-153.885 L 153.584,-153.971 L 153.522,-154.062 L 153.466,-154.157 L 153.417,-154.255
 L 153.373,-154.356 L 153.336,-154.459 L 153.305,-154.565 L 153.281,-154.672 L 153.264,-154.781 L 153.253,-154.89
 L 153.25,-155 L 153.253,-155.11 L 153.264,-155.219 L 153.281,-155.328 L 153.305,-155.435 L 153.336,-155.541
 L 153.373,-155.644 L 153.417,-155.745 L 153.466,-155.843 L 153.522,-155.938 L 153.584,-156.029 L 153.652,-156.115
 L 153.724,-156.198 L 153.802,-156.276 L 153.885,-156.348 L 153.971,-156.416 L 154.062,-156.478 L 154.157,-156.534
 L 154.255,-156.583 L 154.356,-156.627 L 154.459,-156.664 L 154.565,-156.695 L 154.672,-156.719 L 154.781,-156.736
 L 154.89,-156.747 L 155,-156.75 L 155.11,-156.747 L 155.219,-156.736 L 155.328,-156.719 L 155.435,-156.695
 L 155.541,-156.664 L 155.644,-156.627 L 155.745,-156.583 L 155.843,-156.534 L 155.938,-156.478 L 156.029,-156.416
 L 156.115,-156.348 L 156.198,-156.276 L 156.276,-156.198 L 156.348,-156.115 L 156.416,-156.029 L 156.478,-155.938
 L 156.534,-155.843 L 156.583,-155.745 L 156.627,-155.644 L 156.664,-155.541 L 156.695,-155.435 L 156.719,-155.328
 L 156.736,-155.219 L 156.747,-155.11 L 156.75,-155 L 156.747,-154.89 L 156.736,-154.781 L 156.719,-154.672
 L 156.695,-154.565 L 156.664,-154.459 L 156.627,-154.356 L 156.583,-154.255 L 156.534,-154.157 L 156.478,-154.062
 L 156.416,-153.971 L 156.348,-153.885 L 156.276,-153.802 L 156.198,-153.724 L 156.115,-153.652 L 156.029,-153.584
 L 155.938,-153.522 L 155.843,-153.466 L 155.745,-153.417 L 155.644,-153.373 L 155.541,-153.336 L 155.435,-153.305
 L 155.328,-153.281 L 155.219,-153.264 L 155.11,-153.253 L 155,-153.25 z
M 4.89012,-3.25346 L 4.78067,-3.26381 L 4.67209,-3.28101 L 4.5648,-3.30499 L 4.45923,-3.33566 L 4.35579,-3.37289
 L 4.2549,-3.41656 L 4.15694,-3.46648 L 4.06232,-3.52243 L 3.97139,-3.58423 L 3.88452,-3.65161 L 3.80205,-3.72432
 L 3.72432,-3.80205 L 3.65161,-3.88452 L 3.58423,-3.97139 L 3.52243,-4.06232 L 3.46648,-4.15694 L 3.41656,-4.2549
 L 3.37289,-4.35579 L 3.33566,-4.45923 L 3.30499,-4.5648 L 3.28101,-4.67209 L 3.26381,-4.78067 L 3.25346,-4.89012
 L 3.25,-5 L 3.25346,-5.10989 L 3.26381,-5.21935 L 3.28101,-5.32793 L 3.30499,-5.43521 L 3.33566,-5.54079
 L 3.37289,-5.64423 L 3.41656,-5.74512 L 3.46648,-5.84308 L 3.52243,-5.9377 L 3.58423,-6.02863 L 3.65161,-6.11549
 L 3.72432,-6.19797 L 3.80205,-6.2757 L 3.88452,-6.3484 L 3.97139,-6.41579 L 4.06232,-6.47758 L 4.15694,-6.53354
 L 4.2549,-6.58345 L 4.35579,-6.62712 L 4.45923,-6.66435 L 4.5648,-6.69502 L 4.67209,-6.71901 L 4.78067,-6.73621
 L 4.89012,-6.74655 L 5,-6.75 L 5.10989,-6.74655 L 5.21935,-6.73621 L 5.32793,-6.71901 L 5.43521,-6.69502
 L 5.54079,-6.66435 L 5.64423,-6.62712 L 5.74512,-6.58345 L 5.84308,-6.53354 L 5.9377,-6.47758 L 6.02863,-6.41579
 L 6.11549,-6.3484 L 6.19797,-6.2757 L 6.2757,-6.19797 L 6.3484,-6.11549 L 6.41579,-6.02863 L 6.47758,-5.9377
 L 6.53354,-5.84308 L 6.58345,-5.74512 L 6.62712,-5.64423 L 6.66435,-5.54079 L 6.69502,-5.43521 L 6.71901,-5.32793
 L 6.73621,-5.21935 L 6.74655,-5.10989 L 6.75,-5 L 6.74655,-4.89012 L 6.73621,-4.78067 L 6.71901,-4.67209
 L 6.69502,-4.5648 L 6.66435,-4.45923 L 6.62712,-4.35579 L 6.58345,-4.2549 L 6.53354,-4.15694 L 6.47758,-4.06232
 L 6.41579,-3.97139 L 6.3484,-3.88452 L 6.2757,-3.80205 L 6.19797,-3.72432 L 6.11549,-3.65161 L 6.02863,-3.58423
 L 5.9377,-3.52243 L 5.84308,-3.46648 L 5.74512,-3.41656 L 5.64423,-3.37289 L 5.54079,-3.33566 L 5.43521,-3.30499
 L 5.32793,-3.28101 L 5.21935,-3.26381 L 5.10989,-3.25346 L 5,-3.25 z
M 154.89,-3.25346 L 154.781,-3.26381 L 154.672,-3.28101 L 154.565,-3.30499 L 154.459,-3.33566 L 154.356,-3.37289
 L 154.255,-3.41656 L 154.157,-3.46648 L 154.062,-3.52243 L 153.971,-3.58423 L 153.885,-3.65161 L 153.802,-3.72432
 L 153.724,-3.80205 L 153.652,-3.88452 L 153.584,-3.97139 L 153.522,-4.06232 L 153.466,-4.15694 L 153.417,-4.2549
 L 153.373,-4.35579 L 153.336,-4.45923 L 153.305,-4.5648 L 153.281,-4.67209 L 153.264,-4.78067 L 153.253,-4.89012
 L 153.25,-5 L 153.253,-5.10989 L 153.264,-5.21935 L 153.281,-5.32793 L 153.305,-5.43521 L 153.336,-5.54079
 L 153.373,-5.64423 L 153.417,-5.74512 L 153.466,-5.84308 L 153.522,-5.9377 L 153.584,-6.02863 L 153.652,-6.11549
 L 153.724,-6.19797 L 153.802,-6.2757 L 153.885,-6.3484 L 153.971,-6.41579 L 154.062,-6.47758 L 154.157,-6.53354
 L 154.255,-6.58345 L 154.356,-6.62712 L 154.459,-6.66435 L 154.565,-6.69502 L 154.672,-6.71901 L 154.781,-6.73621
 L 154.89,-6.74655 L 155,-6.75 L 155.11,-6.74655 L 155.219,-6.73621 L 155.328,-6.71901 L 155.435,-6.69502
 L 155.541,-6.66435 L 155.644,-6.62712 L 155.745,-6.58345 L 155.843,-6.53354 L 155.938,-6.47758 L 156.029,-6.41579
 L 156.115,-6.3484 L 156.198,-6.2757 L 156.276,-6.19797 L 156.348,-6.11549 L 156.416,-6.02863 L 156.478,-5.9377
 L 156.534,-5.84308 L 156.583,-5.74512 L 156.627,-5.64423 L 156.664,-5.54079 L 156.695,-5.43521 L 156.719,-5.32793
 L 156.736,-5.21935 L 156.747,-5.10989 L 156.75,-5 L 156.747,-4.89012 L 156.736,-4.78067 L 156.719,-4.67209
 L 156.695,-4.5648 L 156.664,-4.45923 L 156.627,-4.35579 L 156.583,-4.2549 L 156.534,-4.15694 L 156.478,-4.06232
 L 156.416,-3.97139 L 156.348,-3.88452 L 156.276,-3.80205 L 156.198,-3.72432 L 156.115,-3.65161 L 156.029,-3.58423
 L 155.938,-3.52243 L 155.843,-3.46648 L 155.745,-3.41656 L 155.644,-3.37289 L 155.541,-3.33566 L 155.435,-3.30499
 L 155.328,-3.28101 L 155.219,-3.26381 L 155.11,-3.25346 L 155,-3.25 z
" stroke="black" fill="lightgray" stroke-width="0.5"/>
</svg>
