EESchema Schematic File Version 4
EELAYER 30 0
EELAYER END
$Descr A4 11693 8268
encoding utf-8
Sheet 16 17
Title ""
Date ""
Rev ""
Comp ""
Comment1 ""
Comment2 ""
Comment3 ""
Comment4 ""
$EndDescr
$Comp
L Device:Rotary_Encoder SW?
U 1 1 60131278
P 5250 3800
AR Path="/60131278" Ref="SW?"  Part="1" 
AR Path="/6011CD72/60131278" Ref="SW1"  Part="1" 
AR Path="/6021C1E2/60131278" Ref="SW2"  Part="1" 
AR Path="/60239E5F/60131278" Ref="SW3"  Part="1" 
AR Path="/602AAE50/60131278" Ref="SW4"  Part="1" 
AR Path="/602C566B/60131278" Ref="SW5"  Part="1" 
AR Path="/602DFF07/60131278" Ref="SW6"  Part="1" 
AR Path="/602FA6C5/60131278" Ref="SW7"  Part="1" 
AR Path="/60314E89/60131278" Ref="SW8"  Part="1" 
AR Path="/6032F5DB/60131278" Ref="SW9"  Part="1" 
AR Path="/603AEF74/60131278" Ref="SW10"  Part="1" 
AR Path="/6044C12F/60131278" Ref="SW11"  Part="1" 
AR Path="/60456744/60131278" Ref="SW12"  Part="1" 
AR Path="/60460E3A/60131278" Ref="SW13"  Part="1" 
AR Path="/6046B482/60131278" Ref="SW14"  Part="1" 
AR Path="/60475A97/60131278" Ref="SW15"  Part="1" 
AR Path="/604800D0/60131278" Ref="SW16"  Part="1" 
F 0 "SW10" V 5500 3750 50  0000 L CNN
F 1 "PEC12R-4020F-N0024" V 5700 3350 50  0000 L CNN
F 2 "r16-midi:PEC12R-4020F-N0024" H 5100 3960 50  0001 C CNN
F 3 "~" H 5250 4060 50  0001 C CNN
	1    5250 3800
	0    1    1    0   
$EndComp
$Comp
L power:GND #PWR?
U 1 1 6013127E
P 5250 3500
AR Path="/6013127E" Ref="#PWR?"  Part="1" 
AR Path="/6011CD72/6013127E" Ref="#PWR031"  Part="1" 
AR Path="/6021C1E2/6013127E" Ref="#PWR035"  Part="1" 
AR Path="/60239E5F/6013127E" Ref="#PWR039"  Part="1" 
AR Path="/602AAE50/6013127E" Ref="#PWR043"  Part="1" 
AR Path="/602C566B/6013127E" Ref="#PWR047"  Part="1" 
AR Path="/602DFF07/6013127E" Ref="#PWR051"  Part="1" 
AR Path="/602FA6C5/6013127E" Ref="#PWR055"  Part="1" 
AR Path="/60314E89/6013127E" Ref="#PWR059"  Part="1" 
AR Path="/6032F5DB/6013127E" Ref="#PWR063"  Part="1" 
AR Path="/603AEF74/6013127E" Ref="#PWR067"  Part="1" 
AR Path="/6044C12F/6013127E" Ref="#PWR071"  Part="1" 
AR Path="/60456744/6013127E" Ref="#PWR075"  Part="1" 
AR Path="/60460E3A/6013127E" Ref="#PWR079"  Part="1" 
AR Path="/6046B482/6013127E" Ref="#PWR083"  Part="1" 
AR Path="/60475A97/6013127E" Ref="#PWR087"  Part="1" 
AR Path="/604800D0/6013127E" Ref="#PWR091"  Part="1" 
F 0 "#PWR063" H 5250 3250 50  0001 C CNN
F 1 "GND" H 5255 3327 50  0000 C CNN
F 2 "" H 5250 3500 50  0001 C CNN
F 3 "" H 5250 3500 50  0001 C CNN
	1    5250 3500
	-1   0    0    1   
$EndComp
$Comp
L Device:R_Small R?
U 1 1 60131284
P 5050 3250
AR Path="/60131284" Ref="R?"  Part="1" 
AR Path="/6011CD72/60131284" Ref="R10"  Part="1" 
AR Path="/6021C1E2/60131284" Ref="R14"  Part="1" 
AR Path="/60239E5F/60131284" Ref="R18"  Part="1" 
AR Path="/602AAE50/60131284" Ref="R22"  Part="1" 
AR Path="/602C566B/60131284" Ref="R26"  Part="1" 
AR Path="/602DFF07/60131284" Ref="R30"  Part="1" 
AR Path="/602FA6C5/60131284" Ref="R34"  Part="1" 
AR Path="/60314E89/60131284" Ref="R38"  Part="1" 
AR Path="/6032F5DB/60131284" Ref="R42"  Part="1" 
AR Path="/603AEF74/60131284" Ref="R46"  Part="1" 
AR Path="/6044C12F/60131284" Ref="R50"  Part="1" 
AR Path="/60456744/60131284" Ref="R54"  Part="1" 
AR Path="/60460E3A/60131284" Ref="R58"  Part="1" 
AR Path="/6046B482/60131284" Ref="R62"  Part="1" 
AR Path="/60475A97/60131284" Ref="R66"  Part="1" 
AR Path="/604800D0/60131284" Ref="R70"  Part="1" 
F 0 "R46" H 4850 3300 50  0000 L CNN
F 1 "10k" H 4850 3200 50  0000 L CNN
F 2 "Resistor_SMD:R_0402_1005Metric" H 5050 3250 50  0001 C CNN
F 3 "~" H 5050 3250 50  0001 C CNN
	1    5050 3250
	1    0    0    -1  
$EndComp
$Comp
L Device:R_Small R?
U 1 1 6013128A
P 5450 3250
AR Path="/6013128A" Ref="R?"  Part="1" 
AR Path="/6011CD72/6013128A" Ref="R11"  Part="1" 
AR Path="/6021C1E2/6013128A" Ref="R15"  Part="1" 
AR Path="/60239E5F/6013128A" Ref="R19"  Part="1" 
AR Path="/602AAE50/6013128A" Ref="R23"  Part="1" 
AR Path="/602C566B/6013128A" Ref="R27"  Part="1" 
AR Path="/602DFF07/6013128A" Ref="R31"  Part="1" 
AR Path="/602FA6C5/6013128A" Ref="R35"  Part="1" 
AR Path="/60314E89/6013128A" Ref="R39"  Part="1" 
AR Path="/6032F5DB/6013128A" Ref="R43"  Part="1" 
AR Path="/603AEF74/6013128A" Ref="R47"  Part="1" 
AR Path="/6044C12F/6013128A" Ref="R51"  Part="1" 
AR Path="/60456744/6013128A" Ref="R55"  Part="1" 
AR Path="/60460E3A/6013128A" Ref="R59"  Part="1" 
AR Path="/6046B482/6013128A" Ref="R63"  Part="1" 
AR Path="/60475A97/6013128A" Ref="R67"  Part="1" 
AR Path="/604800D0/6013128A" Ref="R71"  Part="1" 
F 0 "R47" H 5509 3296 50  0000 L CNN
F 1 "10k" H 5509 3205 50  0000 L CNN
F 2 "Resistor_SMD:R_0402_1005Metric" H 5450 3250 50  0001 C CNN
F 3 "~" H 5450 3250 50  0001 C CNN
	1    5450 3250
	1    0    0    -1  
$EndComp
$Comp
L Device:R_Small R?
U 1 1 60131290
P 5600 3500
AR Path="/60131290" Ref="R?"  Part="1" 
AR Path="/6011CD72/60131290" Ref="R12"  Part="1" 
AR Path="/6021C1E2/60131290" Ref="R16"  Part="1" 
AR Path="/60239E5F/60131290" Ref="R20"  Part="1" 
AR Path="/602AAE50/60131290" Ref="R24"  Part="1" 
AR Path="/602C566B/60131290" Ref="R28"  Part="1" 
AR Path="/602DFF07/60131290" Ref="R32"  Part="1" 
AR Path="/602FA6C5/60131290" Ref="R36"  Part="1" 
AR Path="/60314E89/60131290" Ref="R40"  Part="1" 
AR Path="/6032F5DB/60131290" Ref="R44"  Part="1" 
AR Path="/603AEF74/60131290" Ref="R48"  Part="1" 
AR Path="/6044C12F/60131290" Ref="R52"  Part="1" 
AR Path="/60456744/60131290" Ref="R56"  Part="1" 
AR Path="/60460E3A/60131290" Ref="R60"  Part="1" 
AR Path="/6046B482/60131290" Ref="R64"  Part="1" 
AR Path="/60475A97/60131290" Ref="R68"  Part="1" 
AR Path="/604800D0/60131290" Ref="R72"  Part="1" 
F 0 "R48" V 5700 3450 50  0000 L CNN
F 1 "10k" V 5500 3450 50  0000 L CNN
F 2 "Resistor_SMD:R_0402_1005Metric" H 5600 3500 50  0001 C CNN
F 3 "~" H 5600 3500 50  0001 C CNN
	1    5600 3500
	0    -1   -1   0   
$EndComp
$Comp
L Device:R_Small R?
U 1 1 60131296
P 4900 3500
AR Path="/60131296" Ref="R?"  Part="1" 
AR Path="/6011CD72/60131296" Ref="R9"  Part="1" 
AR Path="/6021C1E2/60131296" Ref="R13"  Part="1" 
AR Path="/60239E5F/60131296" Ref="R17"  Part="1" 
AR Path="/602AAE50/60131296" Ref="R21"  Part="1" 
AR Path="/602C566B/60131296" Ref="R25"  Part="1" 
AR Path="/602DFF07/60131296" Ref="R29"  Part="1" 
AR Path="/602FA6C5/60131296" Ref="R33"  Part="1" 
AR Path="/60314E89/60131296" Ref="R37"  Part="1" 
AR Path="/6032F5DB/60131296" Ref="R41"  Part="1" 
AR Path="/603AEF74/60131296" Ref="R45"  Part="1" 
AR Path="/6044C12F/60131296" Ref="R49"  Part="1" 
AR Path="/60456744/60131296" Ref="R53"  Part="1" 
AR Path="/60460E3A/60131296" Ref="R57"  Part="1" 
AR Path="/6046B482/60131296" Ref="R61"  Part="1" 
AR Path="/60475A97/60131296" Ref="R65"  Part="1" 
AR Path="/604800D0/60131296" Ref="R69"  Part="1" 
F 0 "R45" V 4800 3450 50  0000 L CNN
F 1 "10k" V 5000 3450 50  0000 L CNN
F 2 "Resistor_SMD:R_0402_1005Metric" H 4900 3500 50  0001 C CNN
F 3 "~" H 4900 3500 50  0001 C CNN
	1    4900 3500
	0    1    1    0   
$EndComp
$Comp
L Device:C_Small C?
U 1 1 6013129C
P 4800 3750
AR Path="/6013129C" Ref="C?"  Part="1" 
AR Path="/6011CD72/6013129C" Ref="C15"  Part="1" 
AR Path="/6021C1E2/6013129C" Ref="C17"  Part="1" 
AR Path="/60239E5F/6013129C" Ref="C19"  Part="1" 
AR Path="/602AAE50/6013129C" Ref="C21"  Part="1" 
AR Path="/602C566B/6013129C" Ref="C23"  Part="1" 
AR Path="/602DFF07/6013129C" Ref="C25"  Part="1" 
AR Path="/602FA6C5/6013129C" Ref="C27"  Part="1" 
AR Path="/60314E89/6013129C" Ref="C29"  Part="1" 
AR Path="/6032F5DB/6013129C" Ref="C31"  Part="1" 
AR Path="/603AEF74/6013129C" Ref="C33"  Part="1" 
AR Path="/6044C12F/6013129C" Ref="C35"  Part="1" 
AR Path="/60456744/6013129C" Ref="C37"  Part="1" 
AR Path="/60460E3A/6013129C" Ref="C39"  Part="1" 
AR Path="/6046B482/6013129C" Ref="C41"  Part="1" 
AR Path="/60475A97/6013129C" Ref="C43"  Part="1" 
AR Path="/604800D0/6013129C" Ref="C45"  Part="1" 
F 0 "C33" H 4550 3800 50  0000 L CNN
F 1 "0.01u" H 4500 3700 50  0000 L CNN
F 2 "Capacitor_SMD:C_0402_1005Metric" H 4800 3750 50  0001 C CNN
F 3 "~" H 4800 3750 50  0001 C CNN
	1    4800 3750
	-1   0    0    1   
$EndComp
$Comp
L Device:C_Small C?
U 1 1 601312A2
P 5700 3750
AR Path="/601312A2" Ref="C?"  Part="1" 
AR Path="/6011CD72/601312A2" Ref="C16"  Part="1" 
AR Path="/6021C1E2/601312A2" Ref="C18"  Part="1" 
AR Path="/60239E5F/601312A2" Ref="C20"  Part="1" 
AR Path="/602AAE50/601312A2" Ref="C22"  Part="1" 
AR Path="/602C566B/601312A2" Ref="C24"  Part="1" 
AR Path="/602DFF07/601312A2" Ref="C26"  Part="1" 
AR Path="/602FA6C5/601312A2" Ref="C28"  Part="1" 
AR Path="/60314E89/601312A2" Ref="C30"  Part="1" 
AR Path="/6032F5DB/601312A2" Ref="C32"  Part="1" 
AR Path="/603AEF74/601312A2" Ref="C34"  Part="1" 
AR Path="/6044C12F/601312A2" Ref="C36"  Part="1" 
AR Path="/60456744/601312A2" Ref="C38"  Part="1" 
AR Path="/60460E3A/601312A2" Ref="C40"  Part="1" 
AR Path="/6046B482/601312A2" Ref="C42"  Part="1" 
AR Path="/60475A97/601312A2" Ref="C44"  Part="1" 
AR Path="/604800D0/601312A2" Ref="C46"  Part="1" 
F 0 "C34" H 5792 3796 50  0000 L CNN
F 1 "0.01u" H 5792 3705 50  0000 L CNN
F 2 "Capacitor_SMD:C_0402_1005Metric" H 5700 3750 50  0001 C CNN
F 3 "~" H 5700 3750 50  0001 C CNN
	1    5700 3750
	1    0    0    -1  
$EndComp
$Comp
L power:GND #PWR?
U 1 1 601312A8
P 5700 3900
AR Path="/601312A8" Ref="#PWR?"  Part="1" 
AR Path="/6011CD72/601312A8" Ref="#PWR032"  Part="1" 
AR Path="/6021C1E2/601312A8" Ref="#PWR036"  Part="1" 
AR Path="/60239E5F/601312A8" Ref="#PWR040"  Part="1" 
AR Path="/602AAE50/601312A8" Ref="#PWR044"  Part="1" 
AR Path="/602C566B/601312A8" Ref="#PWR048"  Part="1" 
AR Path="/602DFF07/601312A8" Ref="#PWR052"  Part="1" 
AR Path="/602FA6C5/601312A8" Ref="#PWR056"  Part="1" 
AR Path="/60314E89/601312A8" Ref="#PWR060"  Part="1" 
AR Path="/6032F5DB/601312A8" Ref="#PWR064"  Part="1" 
AR Path="/603AEF74/601312A8" Ref="#PWR068"  Part="1" 
AR Path="/6044C12F/601312A8" Ref="#PWR072"  Part="1" 
AR Path="/60456744/601312A8" Ref="#PWR076"  Part="1" 
AR Path="/60460E3A/601312A8" Ref="#PWR080"  Part="1" 
AR Path="/6046B482/601312A8" Ref="#PWR084"  Part="1" 
AR Path="/60475A97/601312A8" Ref="#PWR088"  Part="1" 
AR Path="/604800D0/601312A8" Ref="#PWR092"  Part="1" 
F 0 "#PWR064" H 5700 3650 50  0001 C CNN
F 1 "GND" H 5705 3727 50  0000 C CNN
F 2 "" H 5700 3900 50  0001 C CNN
F 3 "" H 5700 3900 50  0001 C CNN
	1    5700 3900
	1    0    0    -1  
$EndComp
$Comp
L power:GND #PWR?
U 1 1 601312AE
P 4800 3900
AR Path="/601312AE" Ref="#PWR?"  Part="1" 
AR Path="/6011CD72/601312AE" Ref="#PWR029"  Part="1" 
AR Path="/6021C1E2/601312AE" Ref="#PWR033"  Part="1" 
AR Path="/60239E5F/601312AE" Ref="#PWR037"  Part="1" 
AR Path="/602AAE50/601312AE" Ref="#PWR041"  Part="1" 
AR Path="/602C566B/601312AE" Ref="#PWR045"  Part="1" 
AR Path="/602DFF07/601312AE" Ref="#PWR049"  Part="1" 
AR Path="/602FA6C5/601312AE" Ref="#PWR053"  Part="1" 
AR Path="/60314E89/601312AE" Ref="#PWR057"  Part="1" 
AR Path="/6032F5DB/601312AE" Ref="#PWR061"  Part="1" 
AR Path="/603AEF74/601312AE" Ref="#PWR065"  Part="1" 
AR Path="/6044C12F/601312AE" Ref="#PWR069"  Part="1" 
AR Path="/60456744/601312AE" Ref="#PWR073"  Part="1" 
AR Path="/60460E3A/601312AE" Ref="#PWR077"  Part="1" 
AR Path="/6046B482/601312AE" Ref="#PWR081"  Part="1" 
AR Path="/60475A97/601312AE" Ref="#PWR085"  Part="1" 
AR Path="/604800D0/601312AE" Ref="#PWR089"  Part="1" 
F 0 "#PWR061" H 4800 3650 50  0001 C CNN
F 1 "GND" H 4805 3727 50  0000 C CNN
F 2 "" H 4800 3900 50  0001 C CNN
F 3 "" H 4800 3900 50  0001 C CNN
	1    4800 3900
	1    0    0    -1  
$EndComp
$Comp
L power:+3.3V #PWR?
U 1 1 601312B4
P 5250 3050
AR Path="/601312B4" Ref="#PWR?"  Part="1" 
AR Path="/6011CD72/601312B4" Ref="#PWR030"  Part="1" 
AR Path="/6021C1E2/601312B4" Ref="#PWR034"  Part="1" 
AR Path="/60239E5F/601312B4" Ref="#PWR038"  Part="1" 
AR Path="/602AAE50/601312B4" Ref="#PWR042"  Part="1" 
AR Path="/602C566B/601312B4" Ref="#PWR046"  Part="1" 
AR Path="/602DFF07/601312B4" Ref="#PWR050"  Part="1" 
AR Path="/602FA6C5/601312B4" Ref="#PWR054"  Part="1" 
AR Path="/60314E89/601312B4" Ref="#PWR058"  Part="1" 
AR Path="/6032F5DB/601312B4" Ref="#PWR062"  Part="1" 
AR Path="/603AEF74/601312B4" Ref="#PWR066"  Part="1" 
AR Path="/6044C12F/601312B4" Ref="#PWR070"  Part="1" 
AR Path="/60456744/601312B4" Ref="#PWR074"  Part="1" 
AR Path="/60460E3A/601312B4" Ref="#PWR078"  Part="1" 
AR Path="/6046B482/601312B4" Ref="#PWR082"  Part="1" 
AR Path="/60475A97/601312B4" Ref="#PWR086"  Part="1" 
AR Path="/604800D0/601312B4" Ref="#PWR090"  Part="1" 
F 0 "#PWR062" H 5250 2900 50  0001 C CNN
F 1 "+3.3V" H 5265 3223 50  0000 C CNN
F 2 "" H 5250 3050 50  0001 C CNN
F 3 "" H 5250 3050 50  0001 C CNN
	1    5250 3050
	1    0    0    -1  
$EndComp
Wire Wire Line
	4800 3850 4800 3900
Wire Wire Line
	4800 3650 4800 3500
Wire Wire Line
	5000 3500 5050 3500
Wire Wire Line
	5050 3350 5050 3500
Connection ~ 5050 3500
Wire Wire Line
	5050 3500 5150 3500
Wire Wire Line
	5700 3500 5700 3650
Wire Wire Line
	5700 3850 5700 3900
Wire Wire Line
	5050 3100 5250 3100
Wire Wire Line
	5250 3100 5250 3050
Connection ~ 5250 3100
Wire Wire Line
	5450 3350 5450 3500
Connection ~ 5450 3500
Wire Wire Line
	5450 3500 5500 3500
Wire Wire Line
	5350 3500 5450 3500
Wire Wire Line
	5450 3100 5450 3150
Wire Wire Line
	5250 3100 5450 3100
Wire Wire Line
	5050 3100 5050 3150
Text HLabel 4800 3500 0    50   Input ~ 0
Qei_B
Text HLabel 5700 3500 2    50   Input ~ 0
Qei_A
$EndSCHEMATC
