EESchema Schematic File Version 4
EELAYER 30 0
EELAYER END
$Descr A4 11693 8268
encoding utf-8
Sheet 1 17
Title "r16-midi"
Date "2021-01-09"
Rev "v0.2"
Comp "Raoul"
Comment1 ""
Comment2 ""
Comment3 ""
Comment4 ""
$EndDescr
Text GLabel 1100 2550 0    50   Input ~ 0
USB_CONN_D-
Text GLabel 1100 2350 0    50   Input ~ 0
USB_D-
Text GLabel 2200 2350 2    50   Input ~ 0
USB_D+
Text GLabel 2100 2550 2    50   Input ~ 0
USB_CONN_D+
Text GLabel 10700 3850 2    50   Input ~ 0
USB_D-
Text GLabel 10700 3950 2    50   Input ~ 0
USB_D+
$Comp
L power:GND #PWR04
U 1 1 5FFAF22D
P 1600 2950
F 0 "#PWR04" H 1600 2700 50  0001 C CNN
F 1 "GND" H 1605 2777 50  0000 C CNN
F 2 "" H 1600 2950 50  0001 C CNN
F 3 "" H 1600 2950 50  0001 C CNN
	1    1600 2950
	1    0    0    -1  
$EndComp
$Comp
L power:+5V #PWR03
U 1 1 5FFAFFB1
P 1600 1950
F 0 "#PWR03" H 1600 1800 50  0001 C CNN
F 1 "+5V" H 1600 2100 50  0000 C CNN
F 2 "" H 1600 1950 50  0001 C CNN
F 3 "" H 1600 1950 50  0001 C CNN
	1    1600 1950
	1    0    0    -1  
$EndComp
$Comp
L r16-midi-rescue:USBLC6-2SC6-Power_Protection U1
U 1 1 5FFAD33A
P 1600 2450
F 0 "U1" H 1850 2800 50  0000 C CNN
F 1 "USBLC6-2SC6" H 1950 2100 50  0000 C CNN
F 2 "r16-midi:SOT-23-6" H 850 2850 50  0001 C CNN
F 3 "http://www2.st.com/resource/en/datasheet/CD00050750.pdf" H 1800 2800 50  0001 C CNN
	1    1600 2450
	1    0    0    -1  
$EndComp
Wire Wire Line
	2150 2300 2150 2350
Connection ~ 2150 2350
Wire Wire Line
	2150 2350 2200 2350
$Comp
L power:+3.3V #PWR024
U 1 1 5FFB28FE
P 9800 2500
F 0 "#PWR024" H 9800 2350 50  0001 C CNN
F 1 "+3.3V" H 9815 2673 50  0000 C CNN
F 2 "" H 9800 2500 50  0001 C CNN
F 3 "" H 9800 2500 50  0001 C CNN
	1    9800 2500
	1    0    0    -1  
$EndComp
$Comp
L power:GND #PWR025
U 1 1 5FFB4A78
P 9800 6200
F 0 "#PWR025" H 9800 5950 50  0001 C CNN
F 1 "GND" H 9805 6027 50  0000 C CNN
F 2 "" H 9800 6200 50  0001 C CNN
F 3 "" H 9800 6200 50  0001 C CNN
	1    9800 6200
	1    0    0    -1  
$EndComp
Wire Wire Line
	9800 6150 9800 6200
Text GLabel 10700 4750 2    50   Input ~ 0
TRACE_SWO
Text GLabel 10700 4050 2    50   Input ~ 0
SWDIO
Text GLabel 10700 4150 2    50   Input ~ 0
SWCLK
$Comp
L power:+3.3VA #PWR027
U 1 1 5FFB7A11
P 10300 2500
F 0 "#PWR027" H 10300 2350 50  0001 C CNN
F 1 "+3.3VA" H 10315 2673 50  0000 C CNN
F 2 "" H 10300 2500 50  0001 C CNN
F 3 "" H 10300 2500 50  0001 C CNN
	1    10300 2500
	1    0    0    -1  
$EndComp
Wire Wire Line
	10300 2500 10300 2550
Wire Wire Line
	9800 2500 9800 2550
Text GLabel 9300 4050 0    50   Input ~ 0
HSE_IN
Text GLabel 9300 4150 0    50   Input ~ 0
HSE_OUT
$Comp
L Connector:USB_B_Micro USB_CONN1
U 1 1 5FFA98AA
P 900 1000
F 0 "USB_CONN1" H 957 1467 50  0000 C CNN
F 1 "USB_B_Micro" H 957 1376 50  0000 C CNN
F 2 "r16-midi:U-M-M5DD-W-1" H 1050 950 50  0001 C CNN
F 3 "https://datasheet.lcsc.com/szlcsc/1811131825_Korean-Hroparts-Elec-U-M-M5DD-W-1_C145778.pdf" H 1050 950 50  0001 C CNN
	1    900  1000
	1    0    0    -1  
$EndComp
Text GLabel 1200 1000 2    50   Input ~ 0
USB_CONN_D+
Text GLabel 1200 1100 2    50   Input ~ 0
USB_CONN_D-
$Comp
L power:GND #PWR01
U 1 1 5FFAA575
P 900 1450
F 0 "#PWR01" H 900 1200 50  0001 C CNN
F 1 "GND" H 905 1277 50  0000 C CNN
F 2 "" H 900 1450 50  0001 C CNN
F 3 "" H 900 1450 50  0001 C CNN
	1    900  1450
	1    0    0    -1  
$EndComp
Wire Wire Line
	900  1400 900  1450
NoConn ~ 1200 1200
NoConn ~ 800  1400
Wire Wire Line
	1200 800  1250 800 
$Comp
L Device:C_Small C7
U 1 1 60042A69
P 9150 900
F 0 "C7" H 9242 946 50  0000 L CNN
F 1 "10u" H 9242 855 50  0000 L CNN
F 2 "Capacitor_SMD:C_1206_3216Metric" H 9150 900 50  0001 C CNN
F 3 "~" H 9150 900 50  0001 C CNN
	1    9150 900 
	1    0    0    -1  
$EndComp
$Comp
L Device:C_Small C8
U 1 1 60043AA4
P 9500 900
F 0 "C8" H 9592 946 50  0000 L CNN
F 1 "100n" H 9592 855 50  0000 L CNN
F 2 "Capacitor_SMD:C_0402_1005Metric" H 9500 900 50  0001 C CNN
F 3 "~" H 9500 900 50  0001 C CNN
	1    9500 900 
	1    0    0    -1  
$EndComp
$Comp
L Device:C_Small C9
U 1 1 6004557E
P 9850 900
F 0 "C9" H 9942 946 50  0000 L CNN
F 1 "100n" H 9942 855 50  0000 L CNN
F 2 "Capacitor_SMD:C_0402_1005Metric" H 9850 900 50  0001 C CNN
F 3 "~" H 9850 900 50  0001 C CNN
	1    9850 900 
	1    0    0    -1  
$EndComp
$Comp
L Device:C_Small C11
U 1 1 600462A3
P 10200 900
F 0 "C11" H 10292 946 50  0000 L CNN
F 1 "100n" H 10292 855 50  0000 L CNN
F 2 "Capacitor_SMD:C_0402_1005Metric" H 10200 900 50  0001 C CNN
F 3 "~" H 10200 900 50  0001 C CNN
	1    10200 900 
	1    0    0    -1  
$EndComp
$Comp
L Device:C_Small C13
U 1 1 6004893C
P 10550 900
F 0 "C13" H 10642 946 50  0000 L CNN
F 1 "100n" H 10642 855 50  0000 L CNN
F 2 "Capacitor_SMD:C_0402_1005Metric" H 10550 900 50  0001 C CNN
F 3 "~" H 10550 900 50  0001 C CNN
	1    10550 900 
	1    0    0    -1  
$EndComp
$Comp
L Device:C_Small C14
U 1 1 600498C8
P 10900 900
F 0 "C14" H 10992 946 50  0000 L CNN
F 1 "100n" H 10992 855 50  0000 L CNN
F 2 "Capacitor_SMD:C_0402_1005Metric" H 10900 900 50  0001 C CNN
F 3 "~" H 10900 900 50  0001 C CNN
	1    10900 900 
	1    0    0    -1  
$EndComp
$Comp
L power:+3.3V #PWR021
U 1 1 60054917
P 9150 750
F 0 "#PWR021" H 9150 600 50  0001 C CNN
F 1 "+3.3V" H 9165 923 50  0000 C CNN
F 2 "" H 9150 750 50  0001 C CNN
F 3 "" H 9150 750 50  0001 C CNN
	1    9150 750 
	1    0    0    -1  
$EndComp
$Comp
L power:GND #PWR022
U 1 1 60055B15
P 9150 1050
F 0 "#PWR022" H 9150 800 50  0001 C CNN
F 1 "GND" H 9155 877 50  0000 C CNN
F 2 "" H 9150 1050 50  0001 C CNN
F 3 "" H 9150 1050 50  0001 C CNN
	1    9150 1050
	1    0    0    -1  
$EndComp
Wire Wire Line
	9150 750  9150 800 
Wire Wire Line
	9150 800  9500 800 
Connection ~ 9150 800 
Wire Wire Line
	9500 800  9850 800 
Connection ~ 9500 800 
Wire Wire Line
	9850 800  10200 800 
Connection ~ 9850 800 
Wire Wire Line
	10200 800  10550 800 
Connection ~ 10200 800 
Wire Wire Line
	10550 800  10900 800 
Connection ~ 10550 800 
Wire Wire Line
	10900 1000 10550 1000
Wire Wire Line
	10200 1000 10550 1000
Connection ~ 10550 1000
Wire Wire Line
	10200 1000 9850 1000
Connection ~ 10200 1000
Wire Wire Line
	9850 1000 9500 1000
Connection ~ 9850 1000
Wire Wire Line
	9500 1000 9150 1000
Connection ~ 9500 1000
Wire Wire Line
	9150 1000 9150 1050
Connection ~ 9150 1000
$Comp
L power:+3.3VA #PWR028
U 1 1 60064BB7
P 10550 1650
F 0 "#PWR028" H 10550 1500 50  0001 C CNN
F 1 "+3.3VA" H 10565 1823 50  0000 C CNN
F 2 "" H 10550 1650 50  0001 C CNN
F 3 "" H 10550 1650 50  0001 C CNN
	1    10550 1650
	1    0    0    -1  
$EndComp
$Comp
L power:+3.3V #PWR023
U 1 1 600655AD
P 9500 1650
F 0 "#PWR023" H 9500 1500 50  0001 C CNN
F 1 "+3.3V" H 9515 1823 50  0000 C CNN
F 2 "" H 9500 1650 50  0001 C CNN
F 3 "" H 9500 1650 50  0001 C CNN
	1    9500 1650
	1    0    0    -1  
$EndComp
$Comp
L Device:L_Small L2
U 1 1 60066EF0
P 9750 1650
F 0 "L2" V 9935 1650 50  0000 C CNN
F 1 "39n" V 9844 1650 50  0000 C CNN
F 2 "Inductor_SMD:L_0402_1005Metric" H 9750 1650 50  0001 C CNN
F 3 "~" H 9750 1650 50  0001 C CNN
	1    9750 1650
	0    -1   -1   0   
$EndComp
$Comp
L Device:C_Small C10
U 1 1 600679C1
P 10050 1800
F 0 "C10" H 10142 1846 50  0000 L CNN
F 1 "1u" H 10142 1755 50  0000 L CNN
F 2 "Capacitor_SMD:C_0402_1005Metric" H 10050 1800 50  0001 C CNN
F 3 "~" H 10050 1800 50  0001 C CNN
	1    10050 1800
	1    0    0    -1  
$EndComp
$Comp
L Device:C_Small C12
U 1 1 60068EEA
P 10350 1800
F 0 "C12" H 10442 1846 50  0000 L CNN
F 1 "100n" H 10442 1755 50  0000 L CNN
F 2 "Capacitor_SMD:C_0402_1005Metric" H 10350 1800 50  0001 C CNN
F 3 "~" H 10350 1800 50  0001 C CNN
	1    10350 1800
	1    0    0    -1  
$EndComp
$Comp
L power:GND #PWR026
U 1 1 6006A3D3
P 10050 1950
F 0 "#PWR026" H 10050 1700 50  0001 C CNN
F 1 "GND" H 10055 1777 50  0000 C CNN
F 2 "" H 10050 1950 50  0001 C CNN
F 3 "" H 10050 1950 50  0001 C CNN
	1    10050 1950
	1    0    0    -1  
$EndComp
Wire Wire Line
	9500 1650 9650 1650
Wire Wire Line
	9850 1650 10050 1650
Wire Wire Line
	10050 1700 10050 1650
Connection ~ 10050 1650
Wire Wire Line
	10050 1650 10350 1650
Wire Wire Line
	10350 1700 10350 1650
Connection ~ 10350 1650
Wire Wire Line
	10350 1900 10050 1900
Wire Wire Line
	10050 1900 10050 1950
Connection ~ 10050 1900
Text GLabel 10700 2850 2    50   Input ~ 0
PA1
Text GLabel 10700 2950 2    50   Input ~ 0
PA2
Text GLabel 10700 3050 2    50   Input ~ 0
PA3
Text GLabel 10700 2750 2    50   Input ~ 0
PA0
Text GLabel 10700 3150 2    50   Input ~ 0
PA4
Text GLabel 10700 3250 2    50   Input ~ 0
PA5
Text GLabel 10700 3350 2    50   Input ~ 0
PA6
Text GLabel 10700 3450 2    50   Input ~ 0
PA7
Text GLabel 10700 3550 2    50   Input ~ 0
PA8
Text GLabel 10700 3650 2    50   Input ~ 0
PA9
Text GLabel 10700 3750 2    50   Input ~ 0
PA10
Text GLabel 10700 4250 2    50   Input ~ 0
PA15
Text GLabel 10700 4850 2    50   Input ~ 0
PB4
Text GLabel 10700 4950 2    50   Input ~ 0
PB5
Text GLabel 10700 5050 2    50   Input ~ 0
PB6
Text GLabel 10700 5150 2    50   Input ~ 0
PB7
Text GLabel 10700 5250 2    50   Input ~ 0
PB8
Text GLabel 10700 5350 2    50   Input ~ 0
PB9
Text GLabel 10700 5450 2    50   Input ~ 0
PB10
Text GLabel 10700 5550 2    50   Input ~ 0
PB11
Text GLabel 10700 5650 2    50   Input ~ 0
PB12
Text GLabel 10700 5750 2    50   Input ~ 0
PB13
Text GLabel 10700 5850 2    50   Input ~ 0
PB14
Text GLabel 10700 5950 2    50   Input ~ 0
PB15
Text GLabel 9300 4450 0    50   Input ~ 0
PC0
Text GLabel 9300 4550 0    50   Input ~ 0
PC1
Text GLabel 9300 4650 0    50   Input ~ 0
PC2
Text GLabel 9300 4750 0    50   Input ~ 0
PC3
Text GLabel 9300 4850 0    50   Input ~ 0
PC4
NoConn ~ 9300 4250
NoConn ~ 9300 5250
NoConn ~ 9300 5750
NoConn ~ 9300 5850
NoConn ~ 9300 5950
Wire Notes Line
	8850 500  8850 6650
$Comp
L power:GND #PWR09
U 1 1 606D78CB
P 7750 1500
F 0 "#PWR09" H 7750 1250 50  0001 C CNN
F 1 "GND" H 7755 1327 50  0000 C CNN
F 2 "" H 7750 1500 50  0001 C CNN
F 3 "" H 7750 1500 50  0001 C CNN
	1    7750 1500
	1    0    0    -1  
$EndComp
Wire Wire Line
	7750 1450 7750 1500
$Comp
L Device:C_Small C4
U 1 1 6071E3EA
P 8100 1350
F 0 "C4" H 8192 1396 50  0000 L CNN
F 1 "30p" H 8192 1305 50  0000 L CNN
F 2 "Capacitor_SMD:C_0402_1005Metric" H 8100 1350 50  0001 C CNN
F 3 "~" H 8100 1350 50  0001 C CNN
	1    8100 1350
	1    0    0    -1  
$EndComp
$Comp
L Device:C_Small C2
U 1 1 6071F9E1
P 7450 1350
F 0 "C2" H 7542 1396 50  0000 L CNN
F 1 "30p" H 7542 1305 50  0000 L CNN
F 2 "Capacitor_SMD:C_0402_1005Metric" H 7450 1350 50  0001 C CNN
F 3 "~" H 7450 1350 50  0001 C CNN
	1    7450 1350
	1    0    0    -1  
$EndComp
Wire Wire Line
	7750 1450 7450 1450
Text GLabel 8200 850  2    50   Input ~ 0
HSE_OUT
Text GLabel 8200 700  2    50   Input ~ 0
HSE_IN
Wire Wire Line
	8100 850  8200 850 
Wire Wire Line
	7450 700  8200 700 
Connection ~ 7750 1450
Wire Wire Line
	10350 1650 10550 1650
Text GLabel 2300 850  0    50   Input ~ 0
SWDIO
Text GLabel 2300 1050 0    50   Input ~ 0
SWCLK
Text GLabel 2300 950  0    50   Input ~ 0
NRST
$Comp
L power:GND #PWR017
U 1 1 60D43AC2
P 2300 1250
F 0 "#PWR017" H 2300 1000 50  0001 C CNN
F 1 "GND" H 2305 1077 50  0000 C CNN
F 2 "" H 2300 1250 50  0001 C CNN
F 3 "" H 2300 1250 50  0001 C CNN
	1    2300 1250
	1    0    0    -1  
$EndComp
$Comp
L power:+3.3V #PWR016
U 1 1 60D4246B
P 2300 750
F 0 "#PWR016" H 2300 600 50  0001 C CNN
F 1 "+3.3V" H 2315 923 50  0000 C CNN
F 2 "" H 2300 750 50  0001 C CNN
F 3 "" H 2300 750 50  0001 C CNN
	1    2300 750 
	1    0    0    -1  
$EndComp
Text GLabel 9300 2750 0    50   Input ~ 0
NRST
$Comp
L Connector_Generic:Conn_01x06 J2
U 1 1 60E4839B
P 2500 950
F 0 "J2" H 2580 942 50  0000 L CNN
F 1 "Conn_01x06" H 2580 851 50  0000 L CNN
F 2 "Connector_PinHeader_2.54mm:PinHeader_1x06_P2.54mm_Vertical" H 2500 950 50  0001 C CNN
F 3 "~" H 2500 950 50  0001 C CNN
	1    2500 950 
	1    0    0    -1  
$EndComp
Text GLabel 2300 1150 0    50   Input ~ 0
TRACE_SWO
Wire Wire Line
	7450 700  7450 1150
Wire Wire Line
	7750 1450 8100 1450
$Comp
L Device:Crystal Crystal1
U 1 1 610EC25B
P 7750 1150
F 0 "Crystal1" H 7750 1418 50  0000 C CNN
F 1 "8MHz" H 7750 1327 50  0000 C CNN
F 2 "Crystal:Crystal_SMD_5032-2Pin_5.0x3.2mm" H 7750 1150 50  0001 C CNN
F 3 "https://datasheet.lcsc.com/szlcsc/1903061615_Yangxing-Tech-X50328MSB2GI_C115962.pdf" H 7750 1150 50  0001 C CNN
	1    7750 1150
	1    0    0    -1  
$EndComp
Wire Wire Line
	7900 1150 8100 1150
Connection ~ 8100 1150
Wire Wire Line
	8100 1150 8100 1250
Wire Wire Line
	7600 1150 7450 1150
Connection ~ 7450 1150
Wire Wire Line
	7450 1150 7450 1250
Connection ~ 9800 2550
Connection ~ 9800 6150
Connection ~ 9900 6150
Connection ~ 10000 6150
Connection ~ 10100 6150
Connection ~ 9900 2550
Connection ~ 10000 2550
Connection ~ 10100 2550
Wire Wire Line
	10200 6150 10100 6150
Wire Wire Line
	10200 2550 10100 2550
Wire Wire Line
	10000 6150 10100 6150
Wire Wire Line
	10000 2550 10100 2550
Wire Wire Line
	10000 6150 9900 6150
Wire Wire Line
	10000 2550 9900 2550
Wire Wire Line
	9900 6150 9800 6150
Wire Wire Line
	9800 2550 9900 2550
$Comp
L power:GND #PWR020
U 1 1 60C91F01
P 9100 2150
F 0 "#PWR020" H 9100 1900 50  0001 C CNN
F 1 "GND" H 9105 1977 50  0000 C CNN
F 2 "" H 9100 2150 50  0001 C CNN
F 3 "" H 9100 2150 50  0001 C CNN
	1    9100 2150
	1    0    0    -1  
$EndComp
$Comp
L Device:R_Small R8
U 1 1 60C908C3
P 9100 2050
F 0 "R8" H 9159 2096 50  0000 L CNN
F 1 "10k" H 9159 2005 50  0000 L CNN
F 2 "Resistor_SMD:R_0402_1005Metric" H 9100 2050 50  0001 C CNN
F 3 "~" H 9100 2050 50  0001 C CNN
	1    9100 2050
	1    0    0    -1  
$EndComp
$Comp
L MCU_ST_STM32F1:STM32F103RBTx MCU1
U 1 1 5FFA2B4C
P 10000 4350
F 0 "MCU1" H 10400 2450 50  0000 C CNN
F 1 "STM32F103RBT6" H 10600 2600 50  0000 C CNN
F 2 "Package_QFP:LQFP-64_10x10mm_P0.5mm" H 9400 2650 50  0001 R CNN
F 3 "http://www.st.com/st-web-ui/static/active/en/resource/technical/document/datasheet/CD00161566.pdf" H 10000 4350 50  0001 C CNN
	1    10000 4350
	1    0    0    -1  
$EndComp
Text GLabel 9300 2950 0    50   Input ~ 0
BOOT0
Text GLabel 9100 1950 1    50   Input ~ 0
BOOT0
$Sheet
S 3350 2350 550  250 
U 6011CD72
F0 "Sheet6011CD71" 50
F1 "debouncer.sch" 50
F2 "Qei_B" I R 3900 2500 50 
F3 "Qei_A" I R 3900 2400 50 
$EndSheet
$Sheet
S 7850 2350 550  250 
U 602AAE50
F0 "sheet602AAE4C" 50
F1 "debouncer.sch" 50
F2 "Qei_B" I R 8400 2500 50 
F3 "Qei_A" I R 8400 2400 50 
$EndSheet
$Sheet
S 4800 3300 550  250 
U 602DFF07
F0 "sheet602DFF03" 50
F1 "debouncer.sch" 50
F2 "Qei_B" I R 5350 3450 50 
F3 "Qei_A" I R 5350 3350 50 
$EndSheet
$Sheet
S 6200 3300 550  250 
U 602FA6C5
F0 "sheet602FA6C1" 50
F1 "debouncer.sch" 50
F2 "Qei_B" I R 6750 3450 50 
F3 "Qei_A" I R 6750 3350 50 
$EndSheet
$Sheet
S 7850 4300 550  250 
U 60456744
F0 "sheet60456740" 50
F1 "debouncer.sch" 50
F2 "Qei_B" I R 8400 4450 50 
F3 "Qei_A" I R 8400 4350 50 
$EndSheet
$Sheet
S 3350 5500 550  250 
U 60460E3A
F0 "sheet60460E36" 50
F1 "debouncer.sch" 50
F2 "Qei_B" I R 3900 5650 50 
F3 "Qei_A" I R 3900 5550 50 
$EndSheet
$Sheet
S 4800 5500 550  250 
U 6046B482
F0 "sheet6046B47E" 50
F1 "debouncer.sch" 50
F2 "Qei_B" I R 5350 5650 50 
F3 "Qei_A" I R 5350 5550 50 
$EndSheet
$Sheet
S 7850 5500 550  250 
U 604800D0
F0 "sheet604800CC" 50
F1 "debouncer.sch" 50
F2 "Qei_B" I R 8400 5650 50 
F3 "Qei_A" I R 8400 5550 50 
$EndSheet
$Sheet
S 4800 2350 550  250 
U 6021C1E2
F0 "sheet6021C1DE" 50
F1 "debouncer.sch" 50
F2 "Qei_A" I R 5350 2400 50 
F3 "Qei_B" I R 5350 2500 50 
$EndSheet
$Sheet
S 6200 2350 550  250 
U 60239E5F
F0 "sheet60239E5B" 50
F1 "debouncer.sch" 50
F2 "Qei_B" I R 6750 2500 50 
F3 "Qei_A" I R 6750 2400 50 
$EndSheet
$Sheet
S 7850 3300 550  250 
U 60314E89
F0 "sheet60314E85" 50
F1 "debouncer.sch" 50
F2 "Qei_B" I R 8400 3450 50 
F3 "Qei_A" I R 8400 3350 50 
$EndSheet
$Sheet
S 3350 3300 550  250 
U 602C566B
F0 "sheet602C5667" 50
F1 "debouncer.sch" 50
F2 "Qei_B" I R 3900 3450 50 
F3 "Qei_A" I R 3900 3350 50 
$EndSheet
Text Notes 3900 650  2    50   ~ 0
Power Circuitry
$Comp
L r16-midi:LDO@3.3V U2
U 1 1 6003CD49
P 4000 1050
F 0 "U2" H 4025 1325 50  0000 C CNN
F 1 "LDO@3.3V" H 4025 1234 50  0000 C CNN
F 2 "r16-midi:SOT-23-3" H 4050 1050 50  0001 C CNN
F 3 "https://datasheet.lcsc.com/szlcsc/Torex-Semicon-XC6206P332MR_C5446.pdf" H 4050 1050 50  0001 C CNN
	1    4000 1050
	1    0    0    -1  
$EndComp
$Comp
L power:+5V #PWR0101
U 1 1 6003D4AF
P 3600 950
F 0 "#PWR0101" H 3600 800 50  0001 C CNN
F 1 "+5V" H 3615 1123 50  0000 C CNN
F 2 "" H 3600 950 50  0001 C CNN
F 3 "" H 3600 950 50  0001 C CNN
	1    3600 950 
	1    0    0    -1  
$EndComp
$Comp
L Device:C_Small C1
U 1 1 6003E9D2
P 3700 1200
F 0 "C1" H 3792 1246 50  0000 L CNN
F 1 "1u" H 3792 1155 50  0000 L CNN
F 2 "Capacitor_SMD:C_0402_1005Metric" H 3700 1200 50  0001 C CNN
F 3 "~" H 3700 1200 50  0001 C CNN
	1    3700 1200
	1    0    0    -1  
$EndComp
$Comp
L power:GND #PWR0102
U 1 1 60044353
P 4350 1250
F 0 "#PWR0102" H 4350 1000 50  0001 C CNN
F 1 "GND" H 4355 1077 50  0000 C CNN
F 2 "" H 4350 1250 50  0001 C CNN
F 3 "" H 4350 1250 50  0001 C CNN
	1    4350 1250
	1    0    0    -1  
$EndComp
$Comp
L Device:C_Small C3
U 1 1 600447A7
P 4550 1150
F 0 "C3" H 4642 1196 50  0000 L CNN
F 1 "1u" H 4642 1105 50  0000 L CNN
F 2 "Capacitor_SMD:C_0402_1005Metric" H 4550 1150 50  0001 C CNN
F 3 "~" H 4550 1150 50  0001 C CNN
	1    4550 1150
	1    0    0    -1  
$EndComp
$Comp
L power:GND #PWR0103
U 1 1 60044F45
P 3700 1300
F 0 "#PWR0103" H 3700 1050 50  0001 C CNN
F 1 "GND" H 3705 1127 50  0000 C CNN
F 2 "" H 3700 1300 50  0001 C CNN
F 3 "" H 3700 1300 50  0001 C CNN
	1    3700 1300
	1    0    0    -1  
$EndComp
$Comp
L power:GND #PWR0104
U 1 1 6004553D
P 4550 1250
F 0 "#PWR0104" H 4550 1000 50  0001 C CNN
F 1 "GND" H 4555 1077 50  0000 C CNN
F 2 "" H 4550 1250 50  0001 C CNN
F 3 "" H 4550 1250 50  0001 C CNN
	1    4550 1250
	1    0    0    -1  
$EndComp
Wire Wire Line
	4350 1150 4350 1250
Wire Wire Line
	4350 1000 4550 1000
Wire Wire Line
	4550 1000 4550 1050
$Comp
L power:+3.3V #PWR0105
U 1 1 60048398
P 4700 950
F 0 "#PWR0105" H 4700 800 50  0001 C CNN
F 1 "+3.3V" H 4715 1123 50  0000 C CNN
F 2 "" H 4700 950 50  0001 C CNN
F 3 "" H 4700 950 50  0001 C CNN
	1    4700 950 
	1    0    0    -1  
$EndComp
Wire Wire Line
	4550 1000 4700 1000
Wire Wire Line
	4700 1000 4700 950 
Connection ~ 4550 1000
Wire Wire Line
	3700 1050 3700 1100
Connection ~ 3700 1050
Wire Wire Line
	3600 950  3600 1050
Wire Wire Line
	3600 1050 3700 1050
Wire Wire Line
	8100 850  8100 1150
$Comp
L Device:R R1
U 1 1 5FFB1223
P 2150 2150
F 0 "R1" H 2220 2196 50  0000 L CNN
F 1 "10k" H 2220 2105 50  0000 L CNN
F 2 "Resistor_SMD:R_0402_1005Metric" V 2080 2150 50  0001 C CNN
F 3 "~" H 2150 2150 50  0001 C CNN
	1    2150 2150
	1    0    0    -1  
$EndComp
$Sheet
S 6200 4300 550  250 
U 6044C12F
F0 "sheet6044C12B" 50
F1 "debouncer.sch" 50
F2 "Qei_B" I R 6750 4450 50 
F3 "Qei_A" I R 6750 4350 50 
$EndSheet
$Sheet
S 6200 5500 550  250 
U 60475A97
F0 "sheet60475A93" 50
F1 "debouncer.sch" 50
F2 "Qei_B" I R 6750 5650 50 
F3 "Qei_A" I R 6750 5550 50 
$EndSheet
Text GLabel 6750 3350 2    50   Input ~ 0
PB11
Text GLabel 6750 3450 2    50   Input ~ 0
PB10
Text GLabel 6750 4450 2    50   Input ~ 0
PA4
Text GLabel 6750 4350 2    50   Input ~ 0
PA5
Text GLabel 8400 5650 2    50   Input ~ 0
PA6
Text GLabel 8400 5550 2    50   Input ~ 0
PA7
Text GLabel 8400 4450 2    50   Input ~ 0
PC5
Text GLabel 8400 4350 2    50   Input ~ 0
PC4
Text GLabel 6750 5650 2    50   Input ~ 0
PA2
Text GLabel 6750 5550 2    50   Input ~ 0
PA3
Text GLabel 5350 4350 2    50   Input ~ 0
PB9
Text GLabel 5350 4450 2    50   Input ~ 0
PB8
$Sheet
S 4800 4300 550  250 
U 603AEF74
F0 "sheet603AEF70" 50
F1 "debouncer.sch" 50
F2 "Qei_B" I R 5350 4450 50 
F3 "Qei_A" I R 5350 4350 50 
$EndSheet
Text GLabel 5350 5550 2    50   Input ~ 0
PA1
Text GLabel 5350 5650 2    50   Input ~ 0
PA0
Text GLabel 3900 4350 2    50   Input ~ 0
PC2
Text GLabel 3900 5650 2    50   Input ~ 0
PC1
Text GLabel 3900 4450 2    50   Input ~ 0
PC3
$Sheet
S 3350 4300 550  250 
U 6032F5DB
F0 "sheet6032F5D7" 50
F1 "debouncer.sch" 50
F2 "Qei_B" I R 3900 4450 50 
F3 "Qei_A" I R 3900 4350 50 
$EndSheet
Text GLabel 3900 5550 2    50   Input ~ 0
PC0
$Comp
L power:+3.3V #PWR0106
U 1 1 600F24AF
P 5150 800
F 0 "#PWR0106" H 5150 650 50  0001 C CNN
F 1 "+3.3V" H 5165 973 50  0000 C CNN
F 2 "" H 5150 800 50  0001 C CNN
F 3 "" H 5150 800 50  0001 C CNN
	1    5150 800 
	1    0    0    -1  
$EndComp
$Comp
L Device:LED PWR1
U 1 1 600F2C34
P 5150 950
F 0 "PWR1" V 5189 832 50  0000 R CNN
F 1 "RED" V 5098 832 50  0000 R CNN
F 2 "LED_SMD:LED_0603_1608Metric" H 5150 950 50  0001 C CNN
F 3 "https://datasheet.lcsc.com/szlcsc/Hubei-KENTO-Elec-KT-0603R_C2286.pdf" H 5150 950 50  0001 C CNN
	1    5150 950 
	0    -1   -1   0   
$EndComp
$Comp
L Device:R_Small R2
U 1 1 600F3A7E
P 5150 1200
F 0 "R2" H 5209 1246 50  0000 L CNN
F 1 "680" H 5209 1155 50  0000 L CNN
F 2 "Resistor_SMD:R_0402_1005Metric" H 5150 1200 50  0001 C CNN
F 3 "~" H 5150 1200 50  0001 C CNN
	1    5150 1200
	1    0    0    -1  
$EndComp
$Comp
L power:GND #PWR0107
U 1 1 600F41C6
P 5150 1300
F 0 "#PWR0107" H 5150 1050 50  0001 C CNN
F 1 "GND" H 5155 1127 50  0000 C CNN
F 2 "" H 5150 1300 50  0001 C CNN
F 3 "" H 5150 1300 50  0001 C CNN
	1    5150 1300
	1    0    0    -1  
$EndComp
Text GLabel 3900 3450 2    50   Input ~ 0
PB7
Text GLabel 3900 3350 2    50   Input ~ 0
PB6
Text GLabel 5350 3350 2    50   Input ~ 0
PC12
Text GLabel 5350 3450 2    50   Input ~ 0
PC11
Text GLabel 3900 2400 2    50   Input ~ 0
PA15
Text GLabel 3900 2500 2    50   Input ~ 0
PC10
Text GLabel 6750 2400 2    50   Input ~ 0
PA8
Text GLabel 5350 2500 2    50   Input ~ 0
PA9
Text GLabel 8400 3350 2    50   Input ~ 0
PB13
Text GLabel 8400 3450 2    50   Input ~ 0
PB12
Text GLabel 8400 2400 2    50   Input ~ 0
PB14
Text GLabel 8400 2500 2    50   Input ~ 0
PB15
Text GLabel 5350 2400 2    50   Input ~ 0
PA10
Text GLabel 6750 2500 2    50   Input ~ 0
PC9
$Comp
L Mechanical:MountingHole H1
U 1 1 6013E7DC
P 750 5500
F 0 "H1" H 850 5546 50  0000 L CNN
F 1 "MountingHole" H 850 5455 50  0000 L CNN
F 2 "MountingHole:MountingHole_3mm" H 750 5500 50  0001 C CNN
F 3 "~" H 750 5500 50  0001 C CNN
	1    750  5500
	1    0    0    -1  
$EndComp
$Comp
L Mechanical:MountingHole H4
U 1 1 6013F325
P 650 6400
F 0 "H4" H 750 6446 50  0000 L CNN
F 1 "MountingHole" H 750 6355 50  0000 L CNN
F 2 "MountingHole:MountingHole_3mm" H 650 6400 50  0001 C CNN
F 3 "~" H 650 6400 50  0001 C CNN
	1    650  6400
	1    0    0    -1  
$EndComp
$Comp
L Mechanical:MountingHole H3
U 1 1 6014076B
P 650 6150
F 0 "H3" H 750 6196 50  0000 L CNN
F 1 "MountingHole" H 750 6105 50  0000 L CNN
F 2 "MountingHole:MountingHole_3mm" H 650 6150 50  0001 C CNN
F 3 "~" H 650 6150 50  0001 C CNN
	1    650  6150
	1    0    0    -1  
$EndComp
$Comp
L Mechanical:MountingHole H2
U 1 1 60141700
P 750 5800
F 0 "H2" H 850 5846 50  0000 L CNN
F 1 "MountingHole" H 850 5755 50  0000 L CNN
F 2 "MountingHole:MountingHole_3mm" H 750 5800 50  0001 C CNN
F 3 "~" H 750 5800 50  0001 C CNN
	1    750  5800
	1    0    0    -1  
$EndComp
Wire Notes Line
	3050 3200 3050 450 
Wire Notes Line
	450  3200 3050 3200
$Comp
L Device:LED RUN1
U 1 1 6016D7CF
P 5600 950
F 0 "RUN1" V 5639 832 50  0000 R CNN
F 1 "RED" V 5548 832 50  0000 R CNN
F 2 "LED_SMD:LED_0603_1608Metric" H 5600 950 50  0001 C CNN
F 3 "https://datasheet.lcsc.com/szlcsc/Hubei-KENTO-Elec-KT-0603R_C2286.pdf" H 5600 950 50  0001 C CNN
	1    5600 950 
	0    -1   -1   0   
$EndComp
$Comp
L Device:R_Small R3
U 1 1 6016D7D5
P 5600 1200
F 0 "R3" H 5659 1246 50  0000 L CNN
F 1 "680" H 5659 1155 50  0000 L CNN
F 2 "Resistor_SMD:R_0402_1005Metric" H 5600 1200 50  0001 C CNN
F 3 "~" H 5600 1200 50  0001 C CNN
	1    5600 1200
	1    0    0    -1  
$EndComp
$Comp
L power:GND #PWR0108
U 1 1 6016D7DB
P 5600 1300
F 0 "#PWR0108" H 5600 1050 50  0001 C CNN
F 1 "GND" H 5605 1127 50  0000 C CNN
F 2 "" H 5600 1300 50  0001 C CNN
F 3 "" H 5600 1300 50  0001 C CNN
	1    5600 1300
	1    0    0    -1  
$EndComp
Text GLabel 5600 800  1    50   Input ~ 0
RUN_LED
Text GLabel 2150 2000 1    50   Input ~ 0
USB_D+_UP
Text GLabel 1250 800  2    50   Input ~ 0
VBUS
$Comp
L Device:Ferrite_Bead_Small FB1
U 1 1 6012B0F9
P 1650 1600
F 0 "FB1" V 1413 1600 50  0000 C CNN
F 1 "Ferrite_Bead_Small" V 1504 1600 50  0000 C CNN
F 2 "Inductor_SMD:L_0805_2012Metric" V 1580 1600 50  0001 C CNN
F 3 "https://datasheet.lcsc.com/szlcsc/1811111111_Sunlord-GZ2012D101TF_C1015.pdf" H 1650 1600 50  0001 C CNN
	1    1650 1600
	0    1    1    0   
$EndComp
Text GLabel 1550 1600 0    50   Input ~ 0
VBUS
$Comp
L power:+5V #PWR0109
U 1 1 6012C532
P 1750 1600
F 0 "#PWR0109" H 1750 1450 50  0001 C CNN
F 1 "+5V" V 1765 1728 50  0000 L CNN
F 2 "" H 1750 1600 50  0001 C CNN
F 3 "" H 1750 1600 50  0001 C CNN
	1    1750 1600
	0    1    1    0   
$EndComp
Text GLabel 9300 5150 0    50   Input ~ 0
USB_D+_UP
Text GLabel 9300 4950 0    50   Input ~ 0
PC5
Text GLabel 9300 5550 0    50   Input ~ 0
PC11
Text GLabel 9300 5650 0    50   Input ~ 0
PC12
Text GLabel 9300 5050 0    50   Input ~ 0
RUN_LED
Text GLabel 9300 5350 0    50   Input ~ 0
PC9
Text GLabel 9300 5450 0    50   Input ~ 0
PC10
NoConn ~ 10700 4450
NoConn ~ 10700 4550
NoConn ~ 10700 4650
Wire Wire Line
	1100 2350 1200 2350
Wire Wire Line
	1100 2550 1200 2550
Wire Wire Line
	2000 2550 2100 2550
Wire Wire Line
	2000 2350 2150 2350
Wire Wire Line
	1600 2050 1600 1950
Wire Wire Line
	1600 2850 1600 2950
$EndSCHEMATC
